debugged_ARM/EXE_STAGE/ARM_TB.vcd
$date
	Wed Dec 20 16:34:46 2023
$end
$version
	Icarus Verilog
$end
$timescale
	1ns
$end
$scope module ARM_TB $end
$var parameter 32 ! HCLK $end
$var reg 1 " clk $end
$var reg 1 # rst $end
$scope module arm $end
$var wire 1 $ Branch_taken $end
$var wire 1 " clk $end
$var wire 1 % hazard $end
$var wire 4 & hazardRm_id_out [3:0] $end
$var wire 1 # rst $end
$var wire 1 ' wb_en_id_out $end
$var wire 1 ( wb_en_id_ex_reg_out $end
$var wire 4 ) status [3:0] $end
$var wire 12 * shift_operand_if_out [11:0] $end
$var wire 12 + shift_operand_id_ex_reg_out [11:0] $end
$var wire 1 , s_id_out $end
$var wire 1 - s_id_ex_reg_out $end
$var wire 32 . reg2_id_out [31:0] $end
$var wire 32 / reg2_id_ex_reg_out [31:0] $end
$var wire 32 0 reg1_id_out [31:0] $end
$var wire 32 1 reg1_id_ex_reg_out [31:0] $end
$var wire 32 2 pc_id_out [31:0] $end
$var wire 32 3 pc_id_ex_reg_out [31:0] $end
$var wire 1 4 mem_write_id_out $end
$var wire 1 5 mem_write_id_ex_reg_out $end
$var wire 1 6 mem_read_id_out $end
$var wire 1 7 mem_read_id_ex_reg_out $end
$var wire 32 8 instruction_if_to_id_register_out [31:0] $end
$var wire 32 9 instruction_id_ex_reg_out [31:0] $end
$var wire 1 : imm_id_out $end
$var wire 1 ; imm_id_ex_reg_out $end
$var wire 24 < imm24_id_out [23:0] $end
$var wire 24 = imm24_id_ex_reg_out [23:0] $end
$var wire 1 > hazard_two_scr_id_out $end
$var wire 4 ? hazardRn_id_out [3:0] $end
$var wire 4 @ exe_cmd_id_out [3:0] $end
$var wire 4 A exe_cmd_id_ex_reg_out [3:0] $end
$var wire 4 B dest_id_ex_reg_out [3:0] $end
$var wire 1 C carry_id_ex_reg_out $end
$var wire 1 D b_id_out $end
$var wire 1 E b_id_ex_reg_out $end
$var wire 32 F alu_res [31:0] $end
$var wire 4 G Rd_id_out [3:0] $end
$var wire 32 H PC_if_to_id_register_out [31:0] $end
$var wire 32 I PC_if_stage_out [31:0] $end
$var wire 32 J Instruction_if_stage_out [31:0] $end
$var wire 32 K BranchAddr [31:0] $end
$scope module stage_exe $end
$var wire 1 " clk $end
$var wire 1 # rst $end
$var wire 32 L valRm [31:0] $end
$var wire 32 M val2 [31:0] $end
$var wire 32 N val1 [31:0] $end
$var wire 4 O status_in [3:0] $end
$var wire 4 P status [3:0] $end
$var wire 12 Q shift_operand [11:0] $end
$var wire 1 - s $end
$var wire 32 R pc [31:0] $end
$var wire 1 5 mem_write_en $end
$var wire 1 7 mem_read_en $end
$var wire 24 S imm_signed_24 [23:0] $end
$var wire 32 T imm24SignExt [31:0] $end
$var wire 1 ; imm $end
$var wire 4 U exe_cmd [3:0] $end
$var wire 1 C carry $end
$var wire 32 V branch_addr [31:0] $end
$var wire 32 W alu_res [31:0] $end
$scope module alu $end
$var wire 1 X z $end
$var wire 4 Y status [3:0] $end
$var wire 32 Z nCarryExt [31:0] $end
$var wire 1 [ n $end
$var wire 4 \ exeCmd [3:0] $end
$var wire 1 C carryIn $end
$var wire 32 ] carryExt [31:0] $end
$var wire 32 ^ b [31:0] $end
$var wire 32 _ a [31:0] $end
$var parameter 32 ` N $end
$var reg 1 a c $end
$var reg 32 b out [31:0] $end
$var reg 1 c v $end
$upscope $end
$scope module branch_calculator $end
$var wire 32 d x1 [31:0] $end
$var wire 32 e x0 [31:0] $end
$var wire 32 f res [31:0] $end
$upscope $end
$scope module status_register $end
$var wire 1 " clk $end
$var wire 1 g clr $end
$var wire 4 h in [3:0] $end
$var wire 1 # rst $end
$var wire 1 - ld $end
$var parameter 32 i N $end
$var reg 4 j out [3:0] $end
$upscope $end
$scope module val2generator $end
$var wire 1 k memInst $end
$var wire 32 l valRm [31:0] $end
$var wire 12 m shift_operand [11:0] $end
$var wire 1 ; imm $end
$var reg 32 n val2 [31:0] $end
$var integer 32 o i [31:0] $end
$upscope $end
$upscope $end
$scope module stage_id $end
$var wire 4 p Dest_wb [3:0] $end
$var wire 32 q Value_wb [31:0] $end
$var wire 1 " clk $end
$var wire 1 r final_condition $end
$var wire 1 % hazard $end
$var wire 4 s hazardRdm [3:0] $end
$var wire 1 > hazardTwoSrc $end
$var wire 32 t pc_out [31:0] $end
$var wire 1 # rst $end
$var wire 4 u status [3:0] $end
$var wire 1 v wb_wb_en $end
$var wire 1 ' wb_en_out $end
$var wire 1 w wb_en $end
$var wire 4 x src2 [3:0] $end
$var wire 4 y src1 [3:0] $end
$var wire 12 z shift_operand [11:0] $end
$var wire 1 , s_out $end
$var wire 1 { s_in $end
$var wire 1 | s $end
$var wire 32 } regRn [31:0] $end
$var wire 32 ~ regRm [31:0] $end
$var wire 32 !" reg2 [31:0] $end
$var wire 32 "" reg1 [31:0] $end
$var wire 32 #" pc_in [31:0] $end
$var wire 4 $" op_code [3:0] $end
$var wire 2 %" mode [1:0] $end
$var wire 1 4 mem_write_out $end
$var wire 1 &" mem_write $end
$var wire 1 6 mem_read_out $end
$var wire 1 '" mem_read $end
$var wire 32 (" instruction_in [31:0] $end
$var wire 24 )" imm24 [23:0] $end
$var wire 1 : imm $end
$var wire 4 *" hazardRn [3:0] $end
$var wire 4 +" exe_cmd_out [3:0] $end
$var wire 4 ," exe_cmd [3:0] $end
$var wire 1 -" cond_result $end
$var wire 4 ." cond [3:0] $end
$var wire 1 D b_out $end
$var wire 1 /" b $end
$var wire 4 0" Rm [3:0] $end
$var wire 4 1" R_destination [3:0] $end
$scope module Rm15 $end
$var wire 1 2" sel $end
$var wire 32 3" x1 [31:0] $end
$var wire 32 4" x0 [31:0] $end
$var wire 32 5" res [31:0] $end
$var parameter 32 6" N $end
$upscope $end
$scope module Rn15 $end
$var wire 1 7" sel $end
$var wire 32 8" x1 [31:0] $end
$var wire 32 9" x0 [31:0] $end
$var wire 32 :" res [31:0] $end
$var parameter 32 ;" N $end
$upscope $end
$scope module condition_check $end
$var wire 4 <" cond [3:0] $end
$var wire 4 =" status [3:0] $end
$var wire 1 >" z $end
$var wire 1 ?" v $end
$var wire 1 @" n $end
$var wire 1 A" c $end
$var reg 1 -" result $end
$upscope $end
$scope module control_unit $end
$var wire 2 B" mode [1:0] $end
$var wire 4 C" op_code [3:0] $end
$var wire 1 { s_in $end
$var reg 1 /" b $end
$var reg 4 D" exe_cmd [3:0] $end
$var reg 1 '" mem_read $end
$var reg 1 &" mem_write $end
$var reg 1 | s_out $end
$var reg 1 w wb_en $end
$upscope $end
$scope module mux_src2 $end
$var wire 1 &" sel $end
$var wire 4 E" x0 [3:0] $end
$var wire 4 F" x1 [3:0] $end
$var wire 4 G" res [3:0] $end
$var parameter 32 H" N $end
$upscope $end
$scope module mx $end
$var wire 1 r sel $end
$var wire 9 I" x0 [8:0] $end
$var wire 9 J" x1 [8:0] $end
$var wire 9 K" res [8:0] $end
$var parameter 32 L" N $end
$upscope $end
$scope module register_file $end
$var wire 4 M" Dest_wb [3:0] $end
$var wire 32 N" Result_wb [31:0] $end
$var wire 1 " clk $end
$var wire 32 O" reg1 [31:0] $end
$var wire 32 P" reg2 [31:0] $end
$var wire 1 # rst $end
$var wire 4 Q" src1 [3:0] $end
$var wire 4 R" src2 [3:0] $end
$var wire 1 v writeBack_en $end
$var integer 32 S" i [31:0] $end
$upscope $end
$upscope $end
$scope module stage_id_to_ex_register $end
$var wire 1 D b_in $end
$var wire 1 T" carry_in $end
$var wire 1 " clk $end
$var wire 4 U" cmd_exe_in [3:0] $end
$var wire 4 V" dest_in [3:0] $end
$var wire 1 $ flush $end
$var wire 24 W" imm24_in [23:0] $end
$var wire 1 : imm_in $end
$var wire 1 6 mem_read_in $end
$var wire 1 4 mem_write_in $end
$var wire 32 X" pc_in [31:0] $end
$var wire 32 Y" reg1_in [31:0] $end
$var wire 32 Z" reg2_in [31:0] $end
$var wire 1 # rst $end
$var wire 1 , s_in $end
$var wire 12 [" shift_operand_in [11:0] $end
$var wire 1 ' wb_en_in $end
$var wire 32 \" instruction_in [31:0] $end
$var reg 1 E b_out $end
$var reg 1 C carry_out $end
$var reg 4 ]" dest_out [3:0] $end
$var reg 4 ^" exe_cmd_out [3:0] $end
$var reg 24 _" imm24_out [23:0] $end
$var reg 1 ; imm_out $end
$var reg 32 `" instruction_out [31:0] $end
$var reg 1 7 mem_read_out $end
$var reg 1 5 mem_write_out $end
$var reg 32 a" pc_out [31:0] $end
$var reg 32 b" reg1_out [31:0] $end
$var reg 32 c" reg2_out [31:0] $end
$var reg 1 - s_out $end
$var reg 12 d" shift_operand_out [11:0] $end
$var reg 1 ( wb_en_out $end
$upscope $end
$scope module stage_if $end
$var wire 32 e" BranchAddr [31:0] $end
$var wire 1 $ Branch_taken $end
$var wire 32 f" PC [31:0] $end
$var wire 1 " clk $end
$var wire 1 % freeze $end
$var wire 1 # rst $end
$var wire 32 g" pc_reg_out [31:0] $end
$var wire 32 h" pc_reg_in [31:0] $end
$var wire 32 i" pc_adder_out [31:0] $end
$var wire 32 j" Instruction [31:0] $end
$scope module adder $end
$var wire 32 k" x1 [31:0] $end
$var wire 32 l" x0 [31:0] $end
$var wire 32 m" res [31:0] $end
$upscope $end
$scope module instruction_memory $end
$var wire 1 " clk $end
$var wire 1 # rst $end
$var wire 32 n" PC [31:0] $end
$var reg 32 o" Instruction [31:0] $end
$upscope $end
$scope module mux $end
$var wire 32 p" res [31:0] $end
$var wire 1 $ sel $end
$var wire 32 q" x0 [31:0] $end
$var wire 32 r" x1 [31:0] $end
$var parameter 32 s" N $end
$upscope $end
$scope module pc $end
$var wire 1 " clk $end
$var wire 1 % freeze $end
$var wire 32 t" in [31:0] $end
$var wire 1 # rst $end
$var reg 32 u" out [31:0] $end
$upscope $end
$upscope $end
$scope module stage_if_to_id_register $end
$var wire 1 " clk $end
$var wire 1 $ flush $end
$var wire 1 % freeze $end
$var wire 32 v" instruction_in [31:0] $end
$var wire 32 w" pc_in [31:0] $end
$var wire 1 # rst $end
$var reg 32 x" instruction_out [31:0] $end
$var reg 32 y" pc_out [31:0] $end
$upscope $end
$upscope $end
$upscope $end
$enddefinitions $end
$comment Show the parameter values. $end
$dumpall
b100000 s"
b1001 L"
b100 H"
b100000 ;"
b100000 6"
b100 i
b100000 `
b101 !
$end
#0
$dumpvars
b0 y"
b0 x"
b100 w"
bx v"
b0 u"
b100 t"
b0 r"
b100 q"
b100 p"
bx o"
b0 n"
b100 m"
b0 l"
b100 k"
bx j"
b100 i"
b100 h"
b0 g"
b100 f"
b0 e"
b0 d"
b0 c"
b0 b"
b0 a"
b0 `"
b0 _"
b0 ^"
b0 ]"
b0 \"
b0 ["
b0 Z"
b0 Y"
b0 X"
b0 W"
b0 V"
b0 U"
0T"
b1111 S"
b0 R"
b0 Q"
b0 P"
b0 O"
b0 N"
b0 M"
b0 K"
b0 J"
b11000100 I"
b0 G"
b0 F"
b0 E"
b110 D"
b0 C"
b0 B"
0A"
0@"
0?"
0>"
b0 ="
b0 <"
b0 :"
b0 9"
b0 8"
07"
b0 5"
b0 4"
b0 3"
02"
b0 1"
b0 0"
0/"
b0 ."
x-"
b110 ,"
b0 +"
b0 *"
b0 )"
b0 ("
0'"
0&"
b0 %"
b0 $"
b0 #"
b0 ""
b0 !"
b0 ~
b0 }
0|
0{
b0 z
b0 y
b0 x
1w
0v
b0 u
b0 t
bz s
1r
b0 q
b0 p
bx o
b0 n
b0 m
b0 l
0k
b0 j
b100 h
0g
b0 f
b0 e
b0 d
0c
b0 b
0a
b0 _
b0 ^
b0 ]
b0 \
0[
b1 Z
b100 Y
1X
b0 W
b0 V
b0 U
b0 T
b0 S
b0 R
b0 Q
b0 P
b100 O
b0 N
b0 M
b0 L
b0 K
bx J
b100 I
b0 H
b0 G
b0 F
0E
0D
0C
b0 B
b0 A
b0 @
b0 ?
1>
b0 =
b0 <
0;
0:
b0 9
b0 8
07
06
05
04
b0 3
b0 2
b0 1
b0 0
b0 /
b0 .
0-
0,
b0 +
b0 *
b0 )
0(
0'
bz &
0%
0$
1#
0"
$end
#5
1"
#10
b11100011101000000000000000010100 J
b11100011101000000000000000010100 j"
b11100011101000000000000000010100 o"
b11100011101000000000000000010100 v"
0"
0#
#15
b11100011101000000001101000000001 J
b11100011101000000001101000000001 j"
b11100011101000000001101000000001 o"
b11100011101000000001101000000001 v"
0>
b100 .
b100 !"
b100 5"
b100 Z"
1-"
b1 ,"
b1 D"
b100100 I"
1w
b100 ~
b100 4"
b100 P"
b100 x
b100 G"
b100 R"
b1110 ."
b1110 <"
b1101 $"
b1101 C"
1:
b100 0"
b100 E"
b101000000000000000010100 <
b101000000000000000010100 )"
b101000000000000000010100 W"
b10100 *
b10100 z
b10100 ["
b1000 h"
b1000 p"
b1000 t"
b1000 I
b1000 f"
b1000 w"
b1000 i"
b1000 m"
b1000 q"
b100 g"
b100 l"
b100 n"
b100 u"
b11100011101000000000000000010100 8
b11100011101000000000000000010100 ("
b11100011101000000000000000010100 \"
b11100011101000000000000000010100 x"
b100 2
b100 t
b100 X"
b100 H
b100 #"
b100 3"
b100 8"
b100 y"
1"
#20
0"
#25
b11100011101000000010000100000011 J
b11100011101000000010000100000011 j"
b11100011101000000010000100000011 o"
b11100011101000000010000100000011 v"
b1 .
b1 !"
b1 5"
b1 Z"
b1 ~
b1 4"
b1 P"
b1 x
b1 G"
b1 R"
b0 o
b10100 M
b10100 ^
b10100 n
b1 G
b1 1"
b1 F"
b1 V"
b1 0"
b1 E"
b101000000001101000000001 <
b101000000001101000000001 )"
b101000000001101000000001 W"
b101000000001 *
b101000000001 z
b101000000001 ["
b11111110100000000000000001010000 T
b11111110100000000000000001010000 d
b101000000000000000010100 =
b101000000000000000010100 S
b101000000000000000010100 _"
b10100 +
b10100 Q
b10100 m
b10100 d"
1;
b100 /
b100 L
b100 l
b100 c"
b11111110100000000000000001010100 K
b11111110100000000000000001010100 V
b11111110100000000000000001010100 f
b11111110100000000000000001010100 e"
b11111110100000000000000001010100 r"
b100 3
b100 R
b100 e
b100 a"
b11100011101000000000000000010100 9
b11100011101000000000000000010100 `"
b11100011101000000001101000000001 8
b11100011101000000001101000000001 ("
b11100011101000000001101000000001 \"
b11100011101000000001101000000001 x"
b1000 2
b1000 t
b1000 X"
b1000 H
b1000 #"
b1000 3"
b1000 8"
b1000 y"
b1100 h"
b1100 p"
b1100 t"
b1100 I
b1100 f"
b1100 w"
b1100 i"
b1100 m"
b1100 q"
b1000 g"
b1000 l"
b1000 n"
b1000 u"
1"
#30
0"
#35
b11100000100100100011000000000010 J
b11100000100100100011000000000010 j"
b11100000100100100011000000000010 o"
b11100000100100100011000000000010 v"
b11 .
b11 !"
b11 5"
b11 Z"
b11 ~
b11 4"
b11 P"
b11 x
b11 G"
b11 R"
b10 G
b10 1"
b10 F"
b10 V"
b11 0"
b11 E"
b101000000010000100000011 <
b101000000010000100000011 )"
b101000000010000100000011 W"
b100000011 *
b100000011 z
b100000011 ["
b10100 o
b1000000000000 M
b1000000000000 ^
b1000000000000 n
b10000 h"
b10000 p"
b10000 t"
b10000 I
b10000 f"
b10000 w"
b10000 i"
b10000 m"
b10000 q"
b1100 g"
b1100 l"
b1100 n"
b1100 u"
b11100011101000000010000100000011 8
b11100011101000000010000100000011 ("
b11100011101000000010000100000011 \"
b11100011101000000010000100000011 x"
b1100 2
b1100 t
b1100 X"
b1100 H
b1100 #"
b1100 3"
b1100 8"
b1100 y"
b1 B
b1 ]"
b11111110100000000110100000000100 T
b11111110100000000110100000000100 d
b101000000001101000000001 =
b101000000001101000000001 S
b101000000001101000000001 _"
b101000000001 +
b101000000001 Q
b101000000001 m
b101000000001 d"
b1 /
b1 L
b1 l
b1 c"
b11111110100000000110100000001100 K
b11111110100000000110100000001100 V
b11111110100000000110100000001100 f
b11111110100000000110100000001100 e"
b11111110100000000110100000001100 r"
b1000 3
b1000 R
b1000 e
b1000 a"
b11100011101000000001101000000001 9
b11100011101000000001101000000001 `"
1"
#40
0"
#45
b11100000101000000100000000000000 J
b11100000101000000100000000000000 j"
b11100000101000000100000000000000 o"
b11100000101000000100000000000000 v"
1>
b10 .
b10 !"
b10 5"
b10 Z"
1|
b10 ,"
b10 D"
b1000101 I"
1w
b10 0
b10 ""
b10 :"
b10 Y"
b10 ~
b10 4"
b10 P"
b10 x
b10 G"
b10 R"
b10 o
b11000000000000000000000000000000 M
b11000000000000000000000000000000 ^
b11000000000000000000000000000000 n
b100 $"
b100 C"
1{
b10 }
b10 9"
b10 O"
b10 y
b10 Q"
b10 ?
b10 *"
0:
b11 G
b11 1"
b11 F"
b11 V"
b10 0"
b10 E"
b100100100011000000000010 <
b100100100011000000000010 )"
b100100100011000000000010 W"
b10 *
b10 z
b10 ["
b10 B
b10 ]"
b11111110100000001000010000001100 T
b11111110100000001000010000001100 d
b101000000010000100000011 =
b101000000010000100000011 S
b101000000010000100000011 _"
b100000011 +
b100000011 Q
b100000011 m
b100000011 d"
b11 /
b11 L
b11 l
b11 c"
b11111110100000001000010000011000 K
b11111110100000001000010000011000 V
b11111110100000001000010000011000 f
b11111110100000001000010000011000 e"
b11111110100000001000010000011000 r"
b1100 3
b1100 R
b1100 e
b1100 a"
b11100011101000000010000100000011 9
b11100011101000000010000100000011 `"
b11100000100100100011000000000010 8
b11100000100100100011000000000010 ("
b11100000100100100011000000000010 \"
b11100000100100100011000000000010 x"
b10000 2
b10000 t
b10000 X"
b10000 H
b10000 #"
b10000 3"
b10000 8"
b10000 y"
b10100 h"
b10100 p"
b10100 t"
b10100 I
b10100 f"
b10100 w"
b10100 i"
b10100 m"
b10100 q"
b10000 g"
b10000 l"
b10000 n"
b10000 u"
1"
#50
0"
#55
b11100000010001000101000100000100 J
b11100000010001000101000100000100 j"
b11100000010001000101000100000100 o"
b11100000010001000101000100000100 v"
b0 .
b0 !"
b0 5"
b0 Z"
b11 ,"
b11 D"
0|
b1100100 I"
1w
b0 0
b0 ""
b0 :"
b0 Y"
b0 ~
b0 4"
b0 P"
b0 x
b0 G"
b0 R"
b101 $"
b101 C"
0{
b0 }
b0 9"
b0 O"
b0 y
b0 Q"
b0 ?
b0 *"
b100 G
b100 1"
b100 F"
b100 V"
b0 0"
b0 E"
b101000000100000000000000 <
b101000000100000000000000 )"
b101000000100000000000000 W"
b0 *
b0 z
b0 ["
b10 M
b10 ^
b10 n
b11000 h"
b11000 p"
b11000 t"
b11000 I
b11000 f"
b11000 w"
b11000 i"
b11000 m"
b11000 q"
b10100 g"
b10100 l"
b10100 n"
b10100 u"
b11100000101000000100000000000000 8
b11100000101000000100000000000000 ("
b11100000101000000100000000000000 \"
b11100000101000000100000000000000 x"
b10100 2
b10100 t
b10100 X"
b10100 H
b10100 #"
b10100 3"
b10100 8"
b10100 y"
b11 B
b11 ]"
b11111110010010001100000000001000 T
b11111110010010001100000000001000 d
b100100100011000000000010 =
b100100100011000000000010 S
b100100100011000000000010 _"
b10 +
b10 Q
b10 m
b10 d"
0;
b10 1
b10 N
b10 _
b10 b"
b10 /
b10 L
b10 l
b10 c"
b11111110010010001100000000011000 K
b11111110010010001100000000011000 V
b11111110010010001100000000011000 f
b11111110010010001100000000011000 e"
b11111110010010001100000000011000 r"
b10000 3
b10000 R
b10000 e
b10000 a"
b11100000100100100011000000000010 9
b11100000100100100011000000000010 `"
1"
#60
0"
#65
b11100000110000000110000010100000 J
b11100000110000000110000010100000 j"
b11100000110000000110000010100000 o"
b11100000110000000110000010100000 v"
b100 .
b100 !"
b100 5"
b100 Z"
b100 ,"
b100 D"
b10000100 I"
1w
b100 0
b100 ""
b100 :"
b100 Y"
b100 ~
b100 4"
b100 P"
b100 x
b100 G"
b100 R"
b0 M
b0 ^
b0 n
b10 $"
b10 C"
b100 }
b100 9"
b100 O"
b100 y
b100 Q"
b100 ?
b100 *"
b101 G
b101 1"
b101 F"
b101 V"
b100 0"
b100 E"
b10001000101000100000100 <
b10001000101000100000100 )"
b10001000101000100000100 W"
b100000100 *
b100000100 z
b100000100 ["
b100 B
b100 ]"
b11111110100000010000000000000000 T
b11111110100000010000000000000000 d
b101000000100000000000000 =
b101000000100000000000000 S
b101000000100000000000000 _"
b0 +
b0 Q
b0 m
b0 d"
b0 1
b0 N
b0 _
b0 b"
b0 /
b0 L
b0 l
b0 c"
b11111110100000010000000000010100 K
b11111110100000010000000000010100 V
b11111110100000010000000000010100 f
b11111110100000010000000000010100 e"
b11111110100000010000000000010100 r"
b10100 3
b10100 R
b10100 e
b10100 a"
b11100000101000000100000000000000 9
b11100000101000000100000000000000 `"
b11100000010001000101000100000100 8
b11100000010001000101000100000100 ("
b11100000010001000101000100000100 \"
b11100000010001000101000100000100 x"
b11000 2
b11000 t
b11000 X"
b11000 H
b11000 #"
b11000 3"
b11000 8"
b11000 y"
b11100 h"
b11100 p"
b11100 t"
b11100 I
b11100 f"
b11100 w"
b11100 i"
b11100 m"
b11100 q"
b11000 g"
b11000 l"
b11000 n"
b11000 u"
1"
#70
0"
#75
b11100001100001010111000101000010 J
b11100001100001010111000101000010 j"
b11100001100001010111000101000010 o"
b11100001100001010111000101000010 v"
b0 .
b0 !"
b0 5"
b0 Z"
b101 ,"
b101 D"
b10100100 I"
1w
b0 0
b0 ""
b0 :"
b0 Y"
b0 ~
b0 4"
b0 P"
b0 x
b0 G"
b0 R"
b110 $"
b110 C"
b0 }
b0 9"
b0 O"
b0 y
b0 Q"
b0 ?
b0 *"
b110 G
b110 1"
b110 F"
b110 V"
b0 0"
b0 E"
b110000000110000010100000 <
b110000000110000010100000 )"
b110000000110000010100000 W"
b10100000 *
b10100000 z
b10100000 ["
b10000 M
b10000 ^
b10000 n
b100000 h"
b100000 p"
b100000 t"
b100000 I
b100000 f"
b100000 w"
b100000 i"
b100000 m"
b100000 q"
b11100 g"
b11100 l"
b11100 n"
b11100 u"
b11100000110000000110000010100000 8
b11100000110000000110000010100000 ("
b11100000110000000110000010100000 \"
b11100000110000000110000010100000 x"
b11100 2
b11100 t
b11100 X"
b11100 H
b11100 #"
b11100 3"
b11100 8"
b11100 y"
b101 B
b101 ]"
b1000100010100010000010000 T
b1000100010100010000010000 d
b10001000101000100000100 =
b10001000101000100000100 S
b10001000101000100000100 _"
b100000100 +
b100000100 Q
b100000100 m
b100000100 d"
b100 1
b100 N
b100 _
b100 b"
b100 /
b100 L
b100 l
b100 c"
b1000100010100010000101000 K
b1000100010100010000101000 V
b1000100010100010000101000 f
b1000100010100010000101000 e"
b1000100010100010000101000 r"
b11000 3
b11000 R
b11000 e
b11000 a"
b11100000010001000101000100000100 9
b11100000010001000101000100000100 `"
1"
#80
0"
#85
b11100000000001111000000000000011 J
b11100000000001111000000000000011 j"
b11100000000001111000000000000011 o"
b11100000000001111000000000000011 v"
b10 .
b10 !"
b10 5"
b10 Z"
b111 ,"
b111 D"
b11100100 I"
1w
b101 0
b101 ""
b101 :"
b101 Y"
b10 ~
b10 4"
b10 P"
b10 x
b10 G"
b10 R"
b0 M
b0 ^
b0 n
b1100 $"
b1100 C"
b101 }
b101 9"
b101 O"
b101 y
b101 Q"
b101 ?
b101 *"
b111 G
b111 1"
b111 F"
b111 V"
b10 0"
b10 E"
b100001010111000101000010 <
b100001010111000101000010 )"
b100001010111000101000010 W"
b101000010 *
b101000010 z
b101000010 ["
b110 B
b110 ]"
b11111111000000011000001010000000 T
b11111111000000011000001010000000 d
b110000000110000010100000 =
b110000000110000010100000 S
b110000000110000010100000 _"
b10100000 +
b10100000 Q
b10100000 m
b10100000 d"
b0 1
b0 N
b0 _
b0 b"
b0 /
b0 L
b0 l
b0 c"
b11111111000000011000001010011100 K
b11111111000000011000001010011100 V
b11111111000000011000001010011100 f
b11111111000000011000001010011100 e"
b11111111000000011000001010011100 r"
b11100 3
b11100 R
b11100 e
b11100 a"
b11100000110000000110000010100000 9
b11100000110000000110000010100000 `"
b11100001100001010111000101000010 8
b11100001100001010111000101000010 ("
b11100001100001010111000101000010 \"
b11100001100001010111000101000010 x"
b100000 2
b100000 t
b100000 X"
b100000 H
b100000 #"
b100000 3"
b100000 8"
b100000 y"
b100100 h"
b100100 p"
b100100 t"
b100100 I
b100100 f"
b100100 w"
b100100 i"
b100100 m"
b100100 q"
b100000 g"
b100000 l"
b100000 n"
b100000 u"
1"
#90
0"
#95
b11100001111000001001000000000110 J
b11100001111000001001000000000110 j"
b11100001111000001001000000000110 o"
b11100001111000001001000000000110 v"
b11 .
b11 !"
b11 5"
b11 Z"
b110 ,"
b110 D"
b11000100 I"
1w
b111 0
b111 ""
b111 :"
b111 Y"
b11 ~
b11 4"
b11 P"
b11 x
b11 G"
b11 R"
b0 $"
b0 C"
b111 }
b111 9"
b111 O"
b111 y
b111 Q"
b111 ?
b111 *"
b1000 G
b1000 1"
b1000 F"
b1000 V"
b11 0"
b11 E"
b1111000000000000011 <
b1111000000000000011 )"
b1111000000000000011 W"
b11 *
b11 z
b11 ["
b101000 h"
b101000 p"
b101000 t"
b101000 I
b101000 f"
b101000 w"
b101000 i"
b101000 m"
b101000 q"
b100100 g"
b100100 l"
b100100 n"
b100100 u"
b11100000000001111000000000000011 8
b11100000000001111000000000000011 ("
b11100000000001111000000000000011 \"
b11100000000001111000000000000011 x"
b100100 2
b100100 t
b100100 X"
b100100 H
b100100 #"
b100100 3"
b100100 8"
b100100 y"
b111 B
b111 ]"
b11111110000101011100010100001000 T
b11111110000101011100010100001000 d
b100001010111000101000010 =
b100001010111000101000010 S
b100001010111000101000010 _"
b101000010 +
b101000010 Q
b101000010 m
b101000010 d"
b101 1
b101 N
b101 _
b101 b"
b10 /
b10 L
b10 l
b10 c"
b11111110000101011100010100101000 K
b11111110000101011100010100101000 V
b11111110000101011100010100101000 f
b11111110000101011100010100101000 e"
b11111110000101011100010100101000 r"
b100000 3
b100000 R
b100000 e
b100000 a"
b11100001100001010111000101000010 9
b11100001100001010111000101000010 `"
1"
#100
0"
#105
b11100000001001001010000000000101 J
b11100000001001001010000000000101 j"
b11100000001001001010000000000101 o"
b11100000001001001010000000000101 v"
b110 .
b110 !"
b110 5"
b110 Z"
b1001 ,"
b1001 D"
b100100100 I"
1w
b0 0
b0 ""
b0 :"
b0 Y"
b110 ~
b110 4"
b110 P"
b110 x
b110 G"
b110 R"
b11 M
b11 ^
b11 n
b1111 $"
b1111 C"
b0 }
b0 9"
b0 O"
b0 y
b0 Q"
b0 ?
b0 *"
b1001 G
b1001 1"
b1001 F"
b1001 V"
b110 0"
b110 E"
b111000001001000000000110 <
b111000001001000000000110 )"
b111000001001000000000110 W"
b110 *
b110 z
b110 ["
b1000 B
b1000 ]"
b111100000000000001100 T
b111100000000000001100 d
b1111000000000000011 =
b1111000000000000011 S
b1111000000000000011 _"
b11 +
b11 Q
b11 m
b11 d"
b111 1
b111 N
b111 _
b111 b"
b11 /
b11 L
b11 l
b11 c"
b111100000000000110000 K
b111100000000000110000 V
b111100000000000110000 f
b111100000000000110000 e"
b111100000000000110000 r"
b100100 3
b100100 R
b100100 e
b100100 a"
b11100000000001111000000000000011 9
b11100000000001111000000000000011 `"
b11100001111000001001000000000110 8
b11100001111000001001000000000110 ("
b11100001111000001001000000000110 \"
b11100001111000001001000000000110 x"
b101000 2
b101000 t
b101000 X"
b101000 H
b101000 #"
b101000 3"
b101000 8"
b101000 y"
b101100 h"
b101100 p"
b101100 t"
b101100 I
b101100 f"
b101100 w"
b101100 i"
b101100 m"
b101100 q"
b101000 g"
b101000 l"
b101000 n"
b101000 u"
1"
#110
0"
#115
b11100001010110000000000000000110 J
b11100001010110000000000000000110 j"
b11100001010110000000000000000110 o"
b11100001010110000000000000000110 v"
b101 .
b101 !"
b101 5"
b101 Z"
b1000 ,"
b1000 D"
b100000100 I"
1w
b100 0
b100 ""
b100 :"
b100 Y"
b101 ~
b101 4"
b101 P"
b101 x
b101 G"
b101 R"
b1 $"
b1 C"
b100 }
b100 9"
b100 O"
b100 y
b100 Q"
b100 ?
b100 *"
b1010 G
b1010 1"
b1010 F"
b1010 V"
b101 0"
b101 E"
b1001001010000000000101 <
b1001001010000000000101 )"
b1001001010000000000101 W"
b101 *
b101 z
b101 ["
b110 M
b110 ^
b110 n
b110000 h"
b110000 p"
b110000 t"
b110000 I
b110000 f"
b110000 w"
b110000 i"
b110000 m"
b110000 q"
b101100 g"
b101100 l"
b101100 n"
b101100 u"
b11100000001001001010000000000101 8
b11100000001001001010000000000101 ("
b11100000001001001010000000000101 \"
b11100000001001001010000000000101 x"
b101100 2
b101100 t
b101100 X"
b101100 H
b101100 #"
b101100 3"
b101100 8"
b101100 y"
b1001 B
b1001 ]"
b11111111100000100100000000011000 T
b11111111100000100100000000011000 d
b111000001001000000000110 =
b111000001001000000000110 S
b111000001001000000000110 _"
b110 +
b110 Q
b110 m
b110 d"
b0 1
b0 N
b0 _
b0 b"
b110 /
b110 L
b110 l
b110 c"
b11111111100000100100000001000000 K
b11111111100000100100000001000000 V
b11111111100000100100000001000000 f
b11111111100000100100000001000000 e"
b11111111100000100100000001000000 r"
b101000 3
b101000 R
b101000 e
b101000 a"
b11100001111000001001000000000110 9
b11100001111000001001000000000110 `"
1"
#120
0"
