debugged_ARM/EXE_STAGE/ARM_TB.vcd
$date
	Wed Dec 20 17:11:04 2023
$end
$version
	Icarus Verilog
$end
$timescale
	1ns
$end
$scope module ARM_TB $end
$var parameter 32 ! HCLK $end
$var reg 1 " clk $end
$var reg 1 # rst $end
$scope module arm $end
$var wire 1 $ Branch_taken $end
$var wire 1 " clk $end
$var wire 1 % hazard $end
$var wire 4 & hazardRm_id_out [3:0] $end
$var wire 1 # rst $end
$var wire 1 ' wb_en_id_out $end
$var wire 1 ( wb_en_id_ex_reg_out $end
$var wire 1 ) wb_en_ex_mem_reg_out $end
$var wire 32 * val_rm_ex_mem_out [31:0] $end
$var wire 4 + status [3:0] $end
$var wire 12 , shift_operand_if_out [11:0] $end
$var wire 12 - shift_operand_id_ex_reg_out [11:0] $end
$var wire 1 . s_id_out $end
$var wire 1 / s_id_ex_reg_out $end
$var wire 32 0 reg2_id_out [31:0] $end
$var wire 32 1 reg2_id_ex_reg_out [31:0] $end
$var wire 32 2 reg1_id_out [31:0] $end
$var wire 32 3 reg1_id_ex_reg_out [31:0] $end
$var wire 32 4 pc_id_out [31:0] $end
$var wire 32 5 pc_id_ex_reg_out [31:0] $end
$var wire 1 6 mem_write_id_out $end
$var wire 1 7 mem_write_id_ex_reg_out $end
$var wire 1 8 mem_write_en_ex_mem_out $end
$var wire 1 9 mem_read_id_out $end
$var wire 1 : mem_read_id_ex_reg_out $end
$var wire 1 ; mem_read_en_ex_mem_reg_out $end
$var wire 32 < instruction_if_to_id_register_out [31:0] $end
$var wire 32 = instruction_id_ex_reg_out [31:0] $end
$var wire 32 > instruction_exe_mem_out [31:0] $end
$var wire 1 ? imm_id_out $end
$var wire 1 @ imm_id_ex_reg_out $end
$var wire 24 A imm24_id_out [23:0] $end
$var wire 24 B imm24_id_ex_reg_out [23:0] $end
$var wire 1 C hazard_two_scr_id_out $end
$var wire 4 D hazardRn_id_out [3:0] $end
$var wire 4 E exe_cmd_id_out [3:0] $end
$var wire 4 F exe_cmd_id_ex_reg_out [3:0] $end
$var wire 4 G dest_id_ex_reg_out [3:0] $end
$var wire 4 H dest_ex_mem_out [3:0] $end
$var wire 1 I carry_id_ex_reg_out $end
$var wire 1 J b_id_out $end
$var wire 1 K b_id_ex_reg_out $end
$var wire 32 L alu_res_ex_mem_reg_out [31:0] $end
$var wire 32 M alu_res [31:0] $end
$var wire 4 N Rd_id_out [3:0] $end
$var wire 32 O PC_if_to_id_register_out [31:0] $end
$var wire 32 P PC_if_stage_out [31:0] $end
$var wire 32 Q Instruction_if_stage_out [31:0] $end
$var wire 32 R BranchAddr [31:0] $end
$scope module stage_exe $end
$var wire 1 " clk $end
$var wire 1 # rst $end
$var wire 32 S valRm [31:0] $end
$var wire 32 T val2 [31:0] $end
$var wire 32 U val1 [31:0] $end
$var wire 4 V status_in [3:0] $end
$var wire 4 W status [3:0] $end
$var wire 12 X shift_operand [11:0] $end
$var wire 1 / s $end
$var wire 32 Y pc [31:0] $end
$var wire 1 7 mem_write_en $end
$var wire 1 : mem_read_en $end
$var wire 24 Z imm_signed_24 [23:0] $end
$var wire 32 [ imm24SignExt [31:0] $end
$var wire 1 @ imm $end
$var wire 4 \ exe_cmd [3:0] $end
$var wire 1 I carry $end
$var wire 32 ] branch_addr [31:0] $end
$var wire 32 ^ alu_res [31:0] $end
$scope module alu $end
$var wire 1 _ z $end
$var wire 4 ` status [3:0] $end
$var wire 32 a nCarryExt [31:0] $end
$var wire 1 b n $end
$var wire 4 c exeCmd [3:0] $end
$var wire 1 I carryIn $end
$var wire 32 d carryExt [31:0] $end
$var wire 32 e b [31:0] $end
$var wire 32 f a [31:0] $end
$var parameter 32 g N $end
$var reg 1 h c $end
$var reg 32 i out [31:0] $end
$var reg 1 j v $end
$upscope $end
$scope module branch_calculator $end
$var wire 32 k x1 [31:0] $end
$var wire 32 l x0 [31:0] $end
$var wire 32 m res [31:0] $end
$upscope $end
$scope module status_register $end
$var wire 1 " clk $end
$var wire 1 n clr $end
$var wire 4 o in [3:0] $end
$var wire 1 # rst $end
$var wire 1 / ld $end
$var parameter 32 p N $end
$var reg 4 q out [3:0] $end
$upscope $end
$scope module val2generator $end
$var wire 1 r memInst $end
$var wire 32 s valRm [31:0] $end
$var wire 12 t shift_operand [11:0] $end
$var wire 1 @ imm $end
$var reg 32 u val2 [31:0] $end
$var integer 32 v i [31:0] $end
$upscope $end
$upscope $end
$scope module stage_exe_to_mem_reg $end
$var wire 32 w alu_res_in [31:0] $end
$var wire 1 " clk $end
$var wire 1 # rst $end
$var wire 1 ( wb_en_in $end
$var wire 32 x val_rm_in [31:0] $end
$var wire 1 7 mem_write_en_in $end
$var wire 1 : mem_read_en_in $end
$var wire 32 y instruction_in [31:0] $end
$var wire 4 z dest_in [3:0] $end
$var reg 32 { alu_res_out [31:0] $end
$var reg 4 | dest_out [3:0] $end
$var reg 32 } instruction_out [31:0] $end
$var reg 1 ; mem_read_en_out $end
$var reg 1 8 mem_write_en_out $end
$var reg 32 ~ val_rm_out [31:0] $end
$var reg 1 ) wb_en_out $end
$upscope $end
$scope module stage_id $end
$var wire 4 !" Dest_wb [3:0] $end
$var wire 32 "" Value_wb [31:0] $end
$var wire 1 " clk $end
$var wire 1 #" final_condition $end
$var wire 1 % hazard $end
$var wire 4 $" hazardRdm [3:0] $end
$var wire 1 C hazardTwoSrc $end
$var wire 32 %" pc_out [31:0] $end
$var wire 1 # rst $end
$var wire 4 &" status [3:0] $end
$var wire 1 '" wb_wb_en $end
$var wire 1 ' wb_en_out $end
$var wire 1 (" wb_en $end
$var wire 4 )" src2 [3:0] $end
$var wire 4 *" src1 [3:0] $end
$var wire 12 +" shift_operand [11:0] $end
$var wire 1 . s_out $end
$var wire 1 ," s_in $end
$var wire 1 -" s $end
$var wire 32 ." regRn [31:0] $end
$var wire 32 /" regRm [31:0] $end
$var wire 32 0" reg2 [31:0] $end
$var wire 32 1" reg1 [31:0] $end
$var wire 32 2" pc_in [31:0] $end
$var wire 4 3" op_code [3:0] $end
$var wire 2 4" mode [1:0] $end
$var wire 1 6 mem_write_out $end
$var wire 1 5" mem_write $end
$var wire 1 9 mem_read_out $end
$var wire 1 6" mem_read $end
$var wire 32 7" instruction_in [31:0] $end
$var wire 24 8" imm24 [23:0] $end
$var wire 1 ? imm $end
$var wire 4 9" hazardRn [3:0] $end
$var wire 4 :" exe_cmd_out [3:0] $end
$var wire 4 ;" exe_cmd [3:0] $end
$var wire 1 <" cond_result $end
$var wire 4 =" cond [3:0] $end
$var wire 1 J b_out $end
$var wire 1 >" b $end
$var wire 4 ?" Rm [3:0] $end
$var wire 4 @" R_destination [3:0] $end
$scope module Rm15 $end
$var wire 1 A" sel $end
$var wire 32 B" x1 [31:0] $end
$var wire 32 C" x0 [31:0] $end
$var wire 32 D" res [31:0] $end
$var parameter 32 E" N $end
$upscope $end
$scope module Rn15 $end
$var wire 1 F" sel $end
$var wire 32 G" x1 [31:0] $end
$var wire 32 H" x0 [31:0] $end
$var wire 32 I" res [31:0] $end
$var parameter 32 J" N $end
$upscope $end
$scope module condition_check $end
$var wire 4 K" cond [3:0] $end
$var wire 4 L" status [3:0] $end
$var wire 1 M" z $end
$var wire 1 N" v $end
$var wire 1 O" n $end
$var wire 1 P" c $end
$var reg 1 <" result $end
$upscope $end
$scope module control_unit $end
$var wire 2 Q" mode [1:0] $end
$var wire 4 R" op_code [3:0] $end
$var wire 1 ," s_in $end
$var reg 1 >" b $end
$var reg 4 S" exe_cmd [3:0] $end
$var reg 1 6" mem_read $end
$var reg 1 5" mem_write $end
$var reg 1 -" s_out $end
$var reg 1 (" wb_en $end
$upscope $end
$scope module mux_src2 $end
$var wire 1 5" sel $end
$var wire 4 T" x0 [3:0] $end
$var wire 4 U" x1 [3:0] $end
$var wire 4 V" res [3:0] $end
$var parameter 32 W" N $end
$upscope $end
$scope module mx $end
$var wire 1 #" sel $end
$var wire 9 X" x0 [8:0] $end
$var wire 9 Y" x1 [8:0] $end
$var wire 9 Z" res [8:0] $end
$var parameter 32 [" N $end
$upscope $end
$scope module register_file $end
$var wire 4 \" Dest_wb [3:0] $end
$var wire 32 ]" Result_wb [31:0] $end
$var wire 1 " clk $end
$var wire 32 ^" reg1 [31:0] $end
$var wire 32 _" reg2 [31:0] $end
$var wire 1 # rst $end
$var wire 4 `" src1 [3:0] $end
$var wire 4 a" src2 [3:0] $end
$var wire 1 '" writeBack_en $end
$var integer 32 b" i [31:0] $end
$upscope $end
$upscope $end
$scope module stage_id_to_ex_register $end
$var wire 1 J b_in $end
$var wire 1 c" carry_in $end
$var wire 1 " clk $end
$var wire 4 d" cmd_exe_in [3:0] $end
$var wire 4 e" dest_in [3:0] $end
$var wire 1 $ flush $end
$var wire 24 f" imm24_in [23:0] $end
$var wire 1 ? imm_in $end
$var wire 1 9 mem_read_in $end
$var wire 1 6 mem_write_in $end
$var wire 32 g" pc_in [31:0] $end
$var wire 32 h" reg1_in [31:0] $end
$var wire 32 i" reg2_in [31:0] $end
$var wire 1 # rst $end
$var wire 1 . s_in $end
$var wire 12 j" shift_operand_in [11:0] $end
$var wire 1 ' wb_en_in $end
$var wire 32 k" instruction_in [31:0] $end
$var reg 1 K b_out $end
$var reg 1 I carry_out $end
$var reg 4 l" dest_out [3:0] $end
$var reg 4 m" exe_cmd_out [3:0] $end
$var reg 24 n" imm24_out [23:0] $end
$var reg 1 @ imm_out $end
$var reg 32 o" instruction_out [31:0] $end
$var reg 1 : mem_read_out $end
$var reg 1 7 mem_write_out $end
$var reg 32 p" pc_out [31:0] $end
$var reg 32 q" reg1_out [31:0] $end
$var reg 32 r" reg2_out [31:0] $end
$var reg 1 / s_out $end
$var reg 12 s" shift_operand_out [11:0] $end
$var reg 1 ( wb_en_out $end
$upscope $end
$scope module stage_if $end
$var wire 32 t" BranchAddr [31:0] $end
$var wire 1 $ Branch_taken $end
$var wire 32 u" PC [31:0] $end
$var wire 1 " clk $end
$var wire 1 % freeze $end
$var wire 1 # rst $end
$var wire 32 v" pc_reg_out [31:0] $end
$var wire 32 w" pc_reg_in [31:0] $end
$var wire 32 x" pc_adder_out [31:0] $end
$var wire 32 y" Instruction [31:0] $end
$scope module adder $end
$var wire 32 z" x1 [31:0] $end
$var wire 32 {" x0 [31:0] $end
$var wire 32 |" res [31:0] $end
$upscope $end
$scope module instruction_memory $end
$var wire 1 " clk $end
$var wire 1 # rst $end
$var wire 32 }" PC [31:0] $end
$var reg 32 ~" Instruction [31:0] $end
$upscope $end
$scope module mux $end
$var wire 32 !# res [31:0] $end
$var wire 1 $ sel $end
$var wire 32 "# x0 [31:0] $end
$var wire 32 ## x1 [31:0] $end
$var parameter 32 $# N $end
$upscope $end
$scope module pc $end
$var wire 1 " clk $end
$var wire 1 % freeze $end
$var wire 32 %# in [31:0] $end
$var wire 1 # rst $end
$var reg 32 &# out [31:0] $end
$upscope $end
$upscope $end
$scope module stage_if_to_id_register $end
$var wire 1 " clk $end
$var wire 1 $ flush $end
$var wire 1 % freeze $end
$var wire 32 '# instruction_in [31:0] $end
$var wire 32 (# pc_in [31:0] $end
$var wire 1 # rst $end
$var reg 32 )# instruction_out [31:0] $end
$var reg 32 *# pc_out [31:0] $end
$upscope $end
$upscope $end
$upscope $end
$enddefinitions $end
$comment Show the parameter values. $end
$dumpall
b100000 $#
b1001 ["
b100 W"
b100000 J"
b100000 E"
b100 p
b100000 g
b101 !
$end
#0
$dumpvars
b0 *#
b0 )#
b100 (#
bx '#
b0 &#
b100 %#
b0 ##
b100 "#
b100 !#
bx ~"
b0 }"
b100 |"
b0 {"
b100 z"
bx y"
b100 x"
b100 w"
b0 v"
b100 u"
b0 t"
b0 s"
b0 r"
b0 q"
b0 p"
b0 o"
b0 n"
b0 m"
b0 l"
b0 k"
b0 j"
b0 i"
b0 h"
b0 g"
b0 f"
b0 e"
b0 d"
0c"
b1111 b"
b0 a"
b0 `"
b0 _"
b0 ^"
b0 ]"
b0 \"
b0 Z"
b0 Y"
b11000100 X"
b0 V"
b0 U"
b0 T"
b110 S"
b0 R"
b0 Q"
0P"
0O"
0N"
0M"
b0 L"
b0 K"
b0 I"
b0 H"
b0 G"
0F"
b0 D"
b0 C"
b0 B"
0A"
b0 @"
b0 ?"
0>"
b0 ="
x<"
b110 ;"
b0 :"
b0 9"
b0 8"
b0 7"
06"
05"
b0 4"
b0 3"
b0 2"
b0 1"
b0 0"
b0 /"
b0 ."
0-"
0,"
b0 +"
b0 *"
b0 )"
1("
0'"
b0 &"
b0 %"
bz $"
1#"
b0 ""
b0 !"
b0 ~
b0 }
b0 |
b0 {
b0 z
b0 y
b0 x
b0 w
bx v
b0 u
b0 t
b0 s
0r
b0 q
b100 o
0n
b0 m
b0 l
b0 k
0j
b0 i
0h
b0 f
b0 e
b0 d
b0 c
0b
b1 a
b100 `
1_
b0 ^
b0 ]
b0 \
b0 [
b0 Z
b0 Y
b0 X
b0 W
b100 V
b0 U
b0 T
b0 S
b0 R
bx Q
b100 P
b0 O
b0 N
b0 M
b0 L
0K
0J
0I
b0 H
b0 G
b0 F
b0 E
b0 D
1C
b0 B
b0 A
0@
0?
b0 >
b0 =
b0 <
0;
0:
09
08
07
06
b0 5
b0 4
b0 3
b0 2
b0 1
b0 0
0/
0.
b0 -
b0 ,
b0 +
b0 *
0)
0(
0'
bz &
0%
0$
1#
0"
$end
#5
1"
#10
b11100011101000000000000000010100 Q
b11100011101000000000000000010100 y"
b11100011101000000000000000010100 ~"
b11100011101000000000000000010100 '#
0"
0#
#15
b11100011101000000001101000000001 Q
b11100011101000000001101000000001 y"
b11100011101000000001101000000001 ~"
b11100011101000000001101000000001 '#
0C
b100 0
b100 0"
b100 D"
b100 i"
1<"
b1 ;"
b1 S"
b100100 X"
1("
b100 /"
b100 C"
b100 _"
b100 )"
b100 V"
b100 a"
b1110 ="
b1110 K"
b1101 3"
b1101 R"
1?
b100 ?"
b100 T"
b101000000000000000010100 A
b101000000000000000010100 8"
b101000000000000000010100 f"
b10100 ,
b10100 +"
b10100 j"
b1000 w"
b1000 !#
b1000 %#
b1000 P
b1000 u"
b1000 (#
b1000 x"
b1000 |"
b1000 "#
b100 v"
b100 {"
b100 }"
b100 &#
b11100011101000000000000000010100 <
b11100011101000000000000000010100 7"
b11100011101000000000000000010100 k"
b11100011101000000000000000010100 )#
b100 4
b100 %"
b100 g"
b100 O
b100 2"
b100 B"
b100 G"
b100 *#
1"
#20
0"
#25
b11100011101000000010000100000011 Q
b11100011101000000010000100000011 y"
b11100011101000000010000100000011 ~"
b11100011101000000010000100000011 '#
b1 0
b1 0"
b1 D"
b1 i"
b1 /"
b1 C"
b1 _"
b1 )"
b1 V"
b1 a"
b0 v
b10100 T
b10100 e
b10100 u
b1 N
b1 @"
b1 U"
b1 e"
b1 ?"
b1 T"
b101000000001101000000001 A
b101000000001101000000001 8"
b101000000001101000000001 f"
b101000000001 ,
b101000000001 +"
b101000000001 j"
b11111110100000000000000001010000 [
b11111110100000000000000001010000 k
b101000000000000000010100 B
b101000000000000000010100 Z
b101000000000000000010100 n"
b10100 -
b10100 X
b10100 t
b10100 s"
1@
b100 1
b100 S
b100 s
b100 x
b100 r"
b11111110100000000000000001010100 R
b11111110100000000000000001010100 ]
b11111110100000000000000001010100 m
b11111110100000000000000001010100 t"
b11111110100000000000000001010100 ##
b100 5
b100 Y
b100 l
b100 p"
b11100011101000000000000000010100 =
b11100011101000000000000000010100 y
b11100011101000000000000000010100 o"
b11100011101000000001101000000001 <
b11100011101000000001101000000001 7"
b11100011101000000001101000000001 k"
b11100011101000000001101000000001 )#
b1000 4
b1000 %"
b1000 g"
b1000 O
b1000 2"
b1000 B"
b1000 G"
b1000 *#
b1100 w"
b1100 !#
b1100 %#
b1100 P
b1100 u"
b1100 (#
b1100 x"
b1100 |"
b1100 "#
b1000 v"
b1000 {"
b1000 }"
b1000 &#
1"
#30
0"
#35
b11100000100100100011000000000010 Q
b11100000100100100011000000000010 y"
b11100000100100100011000000000010 ~"
b11100000100100100011000000000010 '#
b11 0
b11 0"
b11 D"
b11 i"
b11 /"
b11 C"
b11 _"
b11 )"
b11 V"
b11 a"
b10 N
b10 @"
b10 U"
b10 e"
b11 ?"
b11 T"
b101000000010000100000011 A
b101000000010000100000011 8"
b101000000010000100000011 f"
b100000011 ,
b100000011 +"
b100000011 j"
b10100 v
b1000000000000 T
b1000000000000 e
b1000000000000 u
b10000 w"
b10000 !#
b10000 %#
b10000 P
b10000 u"
b10000 (#
b10000 x"
b10000 |"
b10000 "#
b1100 v"
b1100 {"
b1100 }"
b1100 &#
b11100011101000000010000100000011 <
b11100011101000000010000100000011 7"
b11100011101000000010000100000011 k"
b11100011101000000010000100000011 )#
b1100 4
b1100 %"
b1100 g"
b1100 O
b1100 2"
b1100 B"
b1100 G"
b1100 *#
b1 G
b1 z
b1 l"
b11111110100000000110100000000100 [
b11111110100000000110100000000100 k
b101000000001101000000001 B
b101000000001101000000001 Z
b101000000001101000000001 n"
b101000000001 -
b101000000001 X
b101000000001 t
b101000000001 s"
b1 1
b1 S
b1 s
b1 x
b1 r"
b11111110100000000110100000001100 R
b11111110100000000110100000001100 ]
b11111110100000000110100000001100 m
b11111110100000000110100000001100 t"
b11111110100000000110100000001100 ##
b1000 5
b1000 Y
b1000 l
b1000 p"
b11100011101000000001101000000001 =
b11100011101000000001101000000001 y
b11100011101000000001101000000001 o"
b100 *
b100 ~
b11100011101000000000000000010100 >
b11100011101000000000000000010100 }
1"
#40
0"
#45
b11100000101000000100000000000000 Q
b11100000101000000100000000000000 y"
b11100000101000000100000000000000 ~"
b11100000101000000100000000000000 '#
1C
b10 0
b10 0"
b10 D"
b10 i"
1-"
b10 ;"
b10 S"
b1000101 X"
1("
b10 2
b10 1"
b10 I"
b10 h"
b10 /"
b10 C"
b10 _"
b10 )"
b10 V"
b10 a"
b10 v
b11000000000000000000000000000000 T
b11000000000000000000000000000000 e
b11000000000000000000000000000000 u
b100 3"
b100 R"
1,"
b10 ."
b10 H"
b10 ^"
b10 *"
b10 `"
b10 D
b10 9"
0?
b11 N
b11 @"
b11 U"
b11 e"
b10 ?"
b10 T"
b100100100011000000000010 A
b100100100011000000000010 8"
b100100100011000000000010 f"
b10 ,
b10 +"
b10 j"
b1 H
b1 |
b1 *
b1 ~
b11100011101000000001101000000001 >
b11100011101000000001101000000001 }
b10 G
b10 z
b10 l"
b11111110100000001000010000001100 [
b11111110100000001000010000001100 k
b101000000010000100000011 B
b101000000010000100000011 Z
b101000000010000100000011 n"
b100000011 -
b100000011 X
b100000011 t
b100000011 s"
b11 1
b11 S
b11 s
b11 x
b11 r"
b11111110100000001000010000011000 R
b11111110100000001000010000011000 ]
b11111110100000001000010000011000 m
b11111110100000001000010000011000 t"
b11111110100000001000010000011000 ##
b1100 5
b1100 Y
b1100 l
b1100 p"
b11100011101000000010000100000011 =
b11100011101000000010000100000011 y
b11100011101000000010000100000011 o"
b11100000100100100011000000000010 <
b11100000100100100011000000000010 7"
b11100000100100100011000000000010 k"
b11100000100100100011000000000010 )#
b10000 4
b10000 %"
b10000 g"
b10000 O
b10000 2"
b10000 B"
b10000 G"
b10000 *#
b10100 w"
b10100 !#
b10100 %#
b10100 P
b10100 u"
b10100 (#
b10100 x"
b10100 |"
b10100 "#
b10000 v"
b10000 {"
b10000 }"
b10000 &#
1"
#50
0"
#55
b11100000010001000101000100000100 Q
b11100000010001000101000100000100 y"
b11100000010001000101000100000100 ~"
b11100000010001000101000100000100 '#
b0 0
b0 0"
b0 D"
b0 i"
b11 ;"
b11 S"
0-"
b1100100 X"
1("
b0 2
b0 1"
b0 I"
b0 h"
b0 /"
b0 C"
b0 _"
b0 )"
b0 V"
b0 a"
b101 3"
b101 R"
0,"
b0 ."
b0 H"
b0 ^"
b0 *"
b0 `"
b0 D
b0 9"
b100 N
b100 @"
b100 U"
b100 e"
b0 ?"
b0 T"
b101000000100000000000000 A
b101000000100000000000000 8"
b101000000100000000000000 f"
b0 ,
b0 +"
b0 j"
b10 T
b10 e
b10 u
b11000 w"
b11000 !#
b11000 %#
b11000 P
b11000 u"
b11000 (#
b11000 x"
b11000 |"
b11000 "#
b10100 v"
b10100 {"
b10100 }"
b10100 &#
b11100000101000000100000000000000 <
b11100000101000000100000000000000 7"
b11100000101000000100000000000000 k"
b11100000101000000100000000000000 )#
b10100 4
b10100 %"
b10100 g"
b10100 O
b10100 2"
b10100 B"
b10100 G"
b10100 *#
b11 G
b11 z
b11 l"
b11111110010010001100000000001000 [
b11111110010010001100000000001000 k
b100100100011000000000010 B
b100100100011000000000010 Z
b100100100011000000000010 n"
b10 -
b10 X
b10 t
b10 s"
0@
b10 3
b10 U
b10 f
b10 q"
b10 1
b10 S
b10 s
b10 x
b10 r"
b11111110010010001100000000011000 R
b11111110010010001100000000011000 ]
b11111110010010001100000000011000 m
b11111110010010001100000000011000 t"
b11111110010010001100000000011000 ##
b10000 5
b10000 Y
b10000 l
b10000 p"
b11100000100100100011000000000010 =
b11100000100100100011000000000010 y
b11100000100100100011000000000010 o"
b10 H
b10 |
b11 *
b11 ~
b11100011101000000010000100000011 >
b11100011101000000010000100000011 }
1"
#60
0"
#65
b11100000110000000110000010100000 Q
b11100000110000000110000010100000 y"
b11100000110000000110000010100000 ~"
b11100000110000000110000010100000 '#
b100 0
b100 0"
b100 D"
b100 i"
b100 ;"
b100 S"
b10000100 X"
1("
b100 2
b100 1"
b100 I"
b100 h"
b100 /"
b100 C"
b100 _"
b100 )"
b100 V"
b100 a"
b0 T
b0 e
b0 u
b10 3"
b10 R"
b100 ."
b100 H"
b100 ^"
b100 *"
b100 `"
b100 D
b100 9"
b101 N
b101 @"
b101 U"
b101 e"
b100 ?"
b100 T"
b10001000101000100000100 A
b10001000101000100000100 8"
b10001000101000100000100 f"
b100000100 ,
b100000100 +"
b100000100 j"
b11 H
b11 |
b10 *
b10 ~
b11100000100100100011000000000010 >
b11100000100100100011000000000010 }
b100 G
b100 z
b100 l"
b11111110100000010000000000000000 [
b11111110100000010000000000000000 k
b101000000100000000000000 B
b101000000100000000000000 Z
b101000000100000000000000 n"
b0 -
b0 X
b0 t
b0 s"
b0 3
b0 U
b0 f
b0 q"
b0 1
b0 S
b0 s
b0 x
b0 r"
b11111110100000010000000000010100 R
b11111110100000010000000000010100 ]
b11111110100000010000000000010100 m
b11111110100000010000000000010100 t"
b11111110100000010000000000010100 ##
b10100 5
b10100 Y
b10100 l
b10100 p"
b11100000101000000100000000000000 =
b11100000101000000100000000000000 y
b11100000101000000100000000000000 o"
b11100000010001000101000100000100 <
b11100000010001000101000100000100 7"
b11100000010001000101000100000100 k"
b11100000010001000101000100000100 )#
b11000 4
b11000 %"
b11000 g"
b11000 O
b11000 2"
b11000 B"
b11000 G"
b11000 *#
b11100 w"
b11100 !#
b11100 %#
b11100 P
b11100 u"
b11100 (#
b11100 x"
b11100 |"
b11100 "#
b11000 v"
b11000 {"
b11000 }"
b11000 &#
1"
#70
0"
#75
b11100001100001010111000101000010 Q
b11100001100001010111000101000010 y"
b11100001100001010111000101000010 ~"
b11100001100001010111000101000010 '#
b0 0
b0 0"
b0 D"
b0 i"
b101 ;"
b101 S"
b10100100 X"
1("
b0 2
b0 1"
b0 I"
b0 h"
b0 /"
b0 C"
b0 _"
b0 )"
b0 V"
b0 a"
b110 3"
b110 R"
b0 ."
b0 H"
b0 ^"
b0 *"
b0 `"
b0 D
b0 9"
b110 N
b110 @"
b110 U"
b110 e"
b0 ?"
b0 T"
b110000000110000010100000 A
b110000000110000010100000 8"
b110000000110000010100000 f"
b10100000 ,
b10100000 +"
b10100000 j"
b10000 T
b10000 e
b10000 u
b100000 w"
b100000 !#
b100000 %#
b100000 P
b100000 u"
b100000 (#
b100000 x"
b100000 |"
b100000 "#
b11100 v"
b11100 {"
b11100 }"
b11100 &#
b11100000110000000110000010100000 <
b11100000110000000110000010100000 7"
b11100000110000000110000010100000 k"
b11100000110000000110000010100000 )#
b11100 4
b11100 %"
b11100 g"
b11100 O
b11100 2"
b11100 B"
b11100 G"
b11100 *#
b101 G
b101 z
b101 l"
b1000100010100010000010000 [
b1000100010100010000010000 k
b10001000101000100000100 B
b10001000101000100000100 Z
b10001000101000100000100 n"
b100000100 -
b100000100 X
b100000100 t
b100000100 s"
b100 3
b100 U
b100 f
b100 q"
b100 1
b100 S
b100 s
b100 x
b100 r"
b1000100010100010000101000 R
b1000100010100010000101000 ]
b1000100010100010000101000 m
b1000100010100010000101000 t"
b1000100010100010000101000 ##
b11000 5
b11000 Y
b11000 l
b11000 p"
b11100000010001000101000100000100 =
b11100000010001000101000100000100 y
b11100000010001000101000100000100 o"
b100 H
b100 |
b0 *
b0 ~
b11100000101000000100000000000000 >
b11100000101000000100000000000000 }
1"
#80
0"
#85
b11100000000001111000000000000011 Q
b11100000000001111000000000000011 y"
b11100000000001111000000000000011 ~"
b11100000000001111000000000000011 '#
b10 0
b10 0"
b10 D"
b10 i"
b111 ;"
b111 S"
b11100100 X"
1("
b101 2
b101 1"
b101 I"
b101 h"
b10 /"
b10 C"
b10 _"
b10 )"
b10 V"
b10 a"
b0 T
b0 e
b0 u
b1100 3"
b1100 R"
b101 ."
b101 H"
b101 ^"
b101 *"
b101 `"
b101 D
b101 9"
b111 N
b111 @"
b111 U"
b111 e"
b10 ?"
b10 T"
b100001010111000101000010 A
b100001010111000101000010 8"
b100001010111000101000010 f"
b101000010 ,
b101000010 +"
b101000010 j"
b101 H
b101 |
b100 *
b100 ~
b11100000010001000101000100000100 >
b11100000010001000101000100000100 }
b110 G
b110 z
b110 l"
b11111111000000011000001010000000 [
b11111111000000011000001010000000 k
b110000000110000010100000 B
b110000000110000010100000 Z
b110000000110000010100000 n"
b10100000 -
b10100000 X
b10100000 t
b10100000 s"
b0 3
b0 U
b0 f
b0 q"
b0 1
b0 S
b0 s
b0 x
b0 r"
b11111111000000011000001010011100 R
b11111111000000011000001010011100 ]
b11111111000000011000001010011100 m
b11111111000000011000001010011100 t"
b11111111000000011000001010011100 ##
b11100 5
b11100 Y
b11100 l
b11100 p"
b11100000110000000110000010100000 =
b11100000110000000110000010100000 y
b11100000110000000110000010100000 o"
b11100001100001010111000101000010 <
b11100001100001010111000101000010 7"
b11100001100001010111000101000010 k"
b11100001100001010111000101000010 )#
b100000 4
b100000 %"
b100000 g"
b100000 O
b100000 2"
b100000 B"
b100000 G"
b100000 *#
b100100 w"
b100100 !#
b100100 %#
b100100 P
b100100 u"
b100100 (#
b100100 x"
b100100 |"
b100100 "#
b100000 v"
b100000 {"
b100000 }"
b100000 &#
1"
#90
0"
#95
b11100001111000001001000000000110 Q
b11100001111000001001000000000110 y"
b11100001111000001001000000000110 ~"
b11100001111000001001000000000110 '#
b11 0
b11 0"
b11 D"
b11 i"
b110 ;"
b110 S"
b11000100 X"
1("
b111 2
b111 1"
b111 I"
b111 h"
b11 /"
b11 C"
b11 _"
b11 )"
b11 V"
b11 a"
b0 3"
b0 R"
b111 ."
b111 H"
b111 ^"
b111 *"
b111 `"
b111 D
b111 9"
b1000 N
b1000 @"
b1000 U"
b1000 e"
b11 ?"
b11 T"
b1111000000000000011 A
b1111000000000000011 8"
b1111000000000000011 f"
b11 ,
b11 +"
b11 j"
b101000 w"
b101000 !#
b101000 %#
b101000 P
b101000 u"
b101000 (#
b101000 x"
b101000 |"
b101000 "#
b100100 v"
b100100 {"
b100100 }"
b100100 &#
b11100000000001111000000000000011 <
b11100000000001111000000000000011 7"
b11100000000001111000000000000011 k"
b11100000000001111000000000000011 )#
b100100 4
b100100 %"
b100100 g"
b100100 O
b100100 2"
b100100 B"
b100100 G"
b100100 *#
b111 G
b111 z
b111 l"
b11111110000101011100010100001000 [
b11111110000101011100010100001000 k
b100001010111000101000010 B
b100001010111000101000010 Z
b100001010111000101000010 n"
b101000010 -
b101000010 X
b101000010 t
b101000010 s"
b101 3
b101 U
b101 f
b101 q"
b10 1
b10 S
b10 s
b10 x
b10 r"
b11111110000101011100010100101000 R
b11111110000101011100010100101000 ]
b11111110000101011100010100101000 m
b11111110000101011100010100101000 t"
b11111110000101011100010100101000 ##
b100000 5
b100000 Y
b100000 l
b100000 p"
b11100001100001010111000101000010 =
b11100001100001010111000101000010 y
b11100001100001010111000101000010 o"
b110 H
b110 |
b0 *
b0 ~
b11100000110000000110000010100000 >
b11100000110000000110000010100000 }
1"
#100
0"
