debugged_ARM/MEM_STAGE/ARM_TB.vcd
$date
	Wed Dec 20 17:58:42 2023
$end
$version
	Icarus Verilog
$end
$timescale
	1ns
$end
$scope module ARM_TB $end
$var parameter 32 ! HCLK $end
$var reg 1 " clk $end
$var reg 1 # rst $end
$scope module arm $end
$var wire 1 $ Branch_taken $end
$var wire 1 " clk $end
$var wire 1 % hazard $end
$var wire 4 & hazardRm_id_out [3:0] $end
$var wire 1 # rst $end
$var wire 1 ' wb_en_id_out $end
$var wire 1 ( wb_en_id_ex_reg_out $end
$var wire 1 ) wb_en_ex_mem_reg_out $end
$var wire 32 * val_rm_ex_mem_out [31:0] $end
$var wire 4 + status [3:0] $end
$var wire 12 , shift_operand_if_out [11:0] $end
$var wire 12 - shift_operand_id_ex_reg_out [11:0] $end
$var wire 1 . s_id_out $end
$var wire 1 / s_id_ex_reg_out $end
$var wire 32 0 reg2_id_out [31:0] $end
$var wire 32 1 reg2_id_ex_reg_out [31:0] $end
$var wire 32 2 reg1_id_out [31:0] $end
$var wire 32 3 reg1_id_ex_reg_out [31:0] $end
$var wire 32 4 pc_id_out [31:0] $end
$var wire 32 5 pc_id_ex_reg_out [31:0] $end
$var wire 1 6 mem_write_id_out $end
$var wire 1 7 mem_write_id_ex_reg_out $end
$var wire 1 8 mem_write_en_ex_mem_out $end
$var wire 1 9 mem_read_id_out $end
$var wire 1 : mem_read_id_ex_reg_out $end
$var wire 1 ; mem_read_en_ex_mem_reg_out $end
$var wire 32 < instruction_if_to_id_register_out [31:0] $end
$var wire 32 = instruction_id_ex_reg_out [31:0] $end
$var wire 32 > instruction_exe_mem_out [31:0] $end
$var wire 1 ? imm_id_out $end
$var wire 1 @ imm_id_ex_reg_out $end
$var wire 24 A imm24_id_out [23:0] $end
$var wire 24 B imm24_id_ex_reg_out [23:0] $end
$var wire 1 C hazard_two_scr_id_out $end
$var wire 4 D hazardRn_id_out [3:0] $end
$var wire 4 E exe_cmd_id_out [3:0] $end
$var wire 4 F exe_cmd_id_ex_reg_out [3:0] $end
$var wire 4 G dest_id_ex_reg_out [3:0] $end
$var wire 4 H dest_ex_mem_out [3:0] $end
$var wire 32 I data_read_out [31:0] $end
$var wire 1 J carry_id_ex_reg_out $end
$var wire 1 K b_id_out $end
$var wire 1 L b_id_ex_reg_out $end
$var wire 32 M alu_res_ex_mem_reg_out [31:0] $end
$var wire 32 N alu_res [31:0] $end
$var wire 4 O Rd_id_out [3:0] $end
$var wire 32 P PC_if_to_id_register_out [31:0] $end
$var wire 32 Q PC_if_stage_out [31:0] $end
$var wire 32 R Instruction_if_stage_out [31:0] $end
$var wire 32 S BranchAddr [31:0] $end
$scope module stage_exe $end
$var wire 1 " clk $end
$var wire 1 # rst $end
$var wire 32 T valRm [31:0] $end
$var wire 32 U val2 [31:0] $end
$var wire 32 V val1 [31:0] $end
$var wire 4 W status_in [3:0] $end
$var wire 4 X status [3:0] $end
$var wire 12 Y shift_operand [11:0] $end
$var wire 1 / s $end
$var wire 32 Z pc [31:0] $end
$var wire 1 7 mem_write_en $end
$var wire 1 : mem_read_en $end
$var wire 24 [ imm_signed_24 [23:0] $end
$var wire 32 \ imm24SignExt [31:0] $end
$var wire 1 @ imm $end
$var wire 4 ] exe_cmd [3:0] $end
$var wire 1 J carry $end
$var wire 32 ^ branch_addr [31:0] $end
$var wire 32 _ alu_res [31:0] $end
$scope module alu $end
$var wire 1 ` z $end
$var wire 4 a status [3:0] $end
$var wire 32 b nCarryExt [31:0] $end
$var wire 1 c n $end
$var wire 4 d exeCmd [3:0] $end
$var wire 1 J carryIn $end
$var wire 32 e carryExt [31:0] $end
$var wire 32 f b [31:0] $end
$var wire 32 g a [31:0] $end
$var parameter 32 h N $end
$var reg 1 i c $end
$var reg 32 j out [31:0] $end
$var reg 1 k v $end
$upscope $end
$scope module branch_calculator $end
$var wire 32 l x1 [31:0] $end
$var wire 32 m x0 [31:0] $end
$var wire 32 n res [31:0] $end
$upscope $end
$scope module status_register $end
$var wire 1 " clk $end
$var wire 1 o clr $end
$var wire 4 p in [3:0] $end
$var wire 1 # rst $end
$var wire 1 / ld $end
$var parameter 32 q N $end
$var reg 4 r out [3:0] $end
$upscope $end
$scope module val2generator $end
$var wire 1 s memInst $end
$var wire 32 t valRm [31:0] $end
$var wire 12 u shift_operand [11:0] $end
$var wire 1 @ imm $end
$var reg 32 v val2 [31:0] $end
$var integer 32 w i [31:0] $end
$upscope $end
$upscope $end
$scope module stage_exe_to_mem_reg $end
$var wire 32 x alu_res_in [31:0] $end
$var wire 1 " clk $end
$var wire 1 # rst $end
$var wire 1 ( wb_en_in $end
$var wire 32 y val_rm_in [31:0] $end
$var wire 1 7 mem_write_en_in $end
$var wire 1 : mem_read_en_in $end
$var wire 32 z instruction_in [31:0] $end
$var wire 4 { dest_in [3:0] $end
$var reg 32 | alu_res_out [31:0] $end
$var reg 4 } dest_out [3:0] $end
$var reg 32 ~ instruction_out [31:0] $end
$var reg 1 ; mem_read_en_out $end
$var reg 1 8 mem_write_en_out $end
$var reg 32 !" val_rm_out [31:0] $end
$var reg 1 ) wb_en_out $end
$upscope $end
$scope module stage_id $end
$var wire 4 "" Dest_wb [3:0] $end
$var wire 32 #" Value_wb [31:0] $end
$var wire 1 " clk $end
$var wire 1 $" final_condition $end
$var wire 1 % hazard $end
$var wire 4 %" hazardRdm [3:0] $end
$var wire 1 C hazardTwoSrc $end
$var wire 32 &" pc_out [31:0] $end
$var wire 1 # rst $end
$var wire 4 '" status [3:0] $end
$var wire 1 (" wb_wb_en $end
$var wire 1 ' wb_en_out $end
$var wire 1 )" wb_en $end
$var wire 4 *" src2 [3:0] $end
$var wire 4 +" src1 [3:0] $end
$var wire 12 ," shift_operand [11:0] $end
$var wire 1 . s_out $end
$var wire 1 -" s_in $end
$var wire 1 ." s $end
$var wire 32 /" regRn [31:0] $end
$var wire 32 0" regRm [31:0] $end
$var wire 32 1" reg2 [31:0] $end
$var wire 32 2" reg1 [31:0] $end
$var wire 32 3" pc_in [31:0] $end
$var wire 4 4" op_code [3:0] $end
$var wire 2 5" mode [1:0] $end
$var wire 1 6 mem_write_out $end
$var wire 1 6" mem_write $end
$var wire 1 9 mem_read_out $end
$var wire 1 7" mem_read $end
$var wire 32 8" instruction_in [31:0] $end
$var wire 24 9" imm24 [23:0] $end
$var wire 1 ? imm $end
$var wire 4 :" hazardRn [3:0] $end
$var wire 4 ;" exe_cmd_out [3:0] $end
$var wire 4 <" exe_cmd [3:0] $end
$var wire 1 =" cond_result $end
$var wire 4 >" cond [3:0] $end
$var wire 1 K b_out $end
$var wire 1 ?" b $end
$var wire 4 @" Rm [3:0] $end
$var wire 4 A" R_destination [3:0] $end
$scope module Rm15 $end
$var wire 1 B" sel $end
$var wire 32 C" x1 [31:0] $end
$var wire 32 D" x0 [31:0] $end
$var wire 32 E" res [31:0] $end
$var parameter 32 F" N $end
$upscope $end
$scope module Rn15 $end
$var wire 1 G" sel $end
$var wire 32 H" x1 [31:0] $end
$var wire 32 I" x0 [31:0] $end
$var wire 32 J" res [31:0] $end
$var parameter 32 K" N $end
$upscope $end
$scope module condition_check $end
$var wire 4 L" cond [3:0] $end
$var wire 4 M" status [3:0] $end
$var wire 1 N" z $end
$var wire 1 O" v $end
$var wire 1 P" n $end
$var wire 1 Q" c $end
$var reg 1 =" result $end
$upscope $end
$scope module control_unit $end
$var wire 2 R" mode [1:0] $end
$var wire 4 S" op_code [3:0] $end
$var wire 1 -" s_in $end
$var reg 1 ?" b $end
$var reg 4 T" exe_cmd [3:0] $end
$var reg 1 7" mem_read $end
$var reg 1 6" mem_write $end
$var reg 1 ." s_out $end
$var reg 1 )" wb_en $end
$upscope $end
$scope module mux_src2 $end
$var wire 1 6" sel $end
$var wire 4 U" x0 [3:0] $end
$var wire 4 V" x1 [3:0] $end
$var wire 4 W" res [3:0] $end
$var parameter 32 X" N $end
$upscope $end
$scope module mx $end
$var wire 1 $" sel $end
$var wire 9 Y" x0 [8:0] $end
$var wire 9 Z" x1 [8:0] $end
$var wire 9 [" res [8:0] $end
$var parameter 32 \" N $end
$upscope $end
$scope module register_file $end
$var wire 4 ]" Dest_wb [3:0] $end
$var wire 32 ^" Result_wb [31:0] $end
$var wire 1 " clk $end
$var wire 32 _" reg1 [31:0] $end
$var wire 32 `" reg2 [31:0] $end
$var wire 1 # rst $end
$var wire 4 a" src1 [3:0] $end
$var wire 4 b" src2 [3:0] $end
$var wire 1 (" writeBack_en $end
$var integer 32 c" i [31:0] $end
$upscope $end
$upscope $end
$scope module stage_id_to_ex_register $end
$var wire 1 K b_in $end
$var wire 1 d" carry_in $end
$var wire 1 " clk $end
$var wire 4 e" cmd_exe_in [3:0] $end
$var wire 4 f" dest_in [3:0] $end
$var wire 1 $ flush $end
$var wire 24 g" imm24_in [23:0] $end
$var wire 1 ? imm_in $end
$var wire 1 9 mem_read_in $end
$var wire 1 6 mem_write_in $end
$var wire 32 h" pc_in [31:0] $end
$var wire 32 i" reg1_in [31:0] $end
$var wire 32 j" reg2_in [31:0] $end
$var wire 1 # rst $end
$var wire 1 . s_in $end
$var wire 12 k" shift_operand_in [11:0] $end
$var wire 1 ' wb_en_in $end
$var wire 32 l" instruction_in [31:0] $end
$var reg 1 L b_out $end
$var reg 1 J carry_out $end
$var reg 4 m" dest_out [3:0] $end
$var reg 4 n" exe_cmd_out [3:0] $end
$var reg 24 o" imm24_out [23:0] $end
$var reg 1 @ imm_out $end
$var reg 32 p" instruction_out [31:0] $end
$var reg 1 : mem_read_out $end
$var reg 1 7 mem_write_out $end
$var reg 32 q" pc_out [31:0] $end
$var reg 32 r" reg1_out [31:0] $end
$var reg 32 s" reg2_out [31:0] $end
$var reg 1 / s_out $end
$var reg 12 t" shift_operand_out [11:0] $end
$var reg 1 ( wb_en_out $end
$upscope $end
$scope module stage_if $end
$var wire 32 u" BranchAddr [31:0] $end
$var wire 1 $ Branch_taken $end
$var wire 32 v" PC [31:0] $end
$var wire 1 " clk $end
$var wire 1 % freeze $end
$var wire 1 # rst $end
$var wire 32 w" pc_reg_out [31:0] $end
$var wire 32 x" pc_reg_in [31:0] $end
$var wire 32 y" pc_adder_out [31:0] $end
$var wire 32 z" Instruction [31:0] $end
$scope module adder $end
$var wire 32 {" x1 [31:0] $end
$var wire 32 |" x0 [31:0] $end
$var wire 32 }" res [31:0] $end
$upscope $end
$scope module instruction_memory $end
$var wire 1 " clk $end
$var wire 1 # rst $end
$var wire 32 ~" PC [31:0] $end
$var reg 32 !# Instruction [31:0] $end
$upscope $end
$scope module mux $end
$var wire 32 "# res [31:0] $end
$var wire 1 $ sel $end
$var wire 32 ## x0 [31:0] $end
$var wire 32 $# x1 [31:0] $end
$var parameter 32 %# N $end
$upscope $end
$scope module pc $end
$var wire 1 " clk $end
$var wire 1 % freeze $end
$var wire 32 &# in [31:0] $end
$var wire 1 # rst $end
$var reg 32 '# out [31:0] $end
$upscope $end
$upscope $end
$scope module stage_if_to_id_register $end
$var wire 1 " clk $end
$var wire 1 $ flush $end
$var wire 1 % freeze $end
$var wire 32 (# instruction_in [31:0] $end
$var wire 32 )# pc_in [31:0] $end
$var wire 1 # rst $end
$var reg 32 *# instruction_out [31:0] $end
$var reg 32 +# pc_out [31:0] $end
$upscope $end
$scope module stage_mem $end
$var wire 32 ,# alu_re_addr [31:0] $end
$var wire 1 " clk $end
$var wire 1 ; mem_read_en $end
$var wire 1 8 mem_write_en $end
$var wire 1 # rst $end
$var wire 32 -# val_rm [31:0] $end
$var wire 1 ) wb_en $end
$var wire 32 .# data_out [31:0] $end
$scope module data_memory $end
$var wire 1 " clk $end
$var wire 32 /# memAdr [31:0] $end
$var wire 1 ; memRead $end
$var wire 1 8 memWrite $end
$var wire 1 # rst $end
$var wire 32 0# writeData [31:0] $end
$var wire 32 1# dataAdr [31:0] $end
$var wire 32 2# adr [31:0] $end
$var wire 32 3# Data_Memory_Output_tmp [31:0] $end
$var parameter 32 4# WordCount $end
$var reg 32 5# readData [31:0] $end
$upscope $end
$upscope $end
$upscope $end
$upscope $end
$enddefinitions $end
$comment Show the parameter values. $end
$dumpall
b1000000 4#
b100000 %#
b1001 \"
b100 X"
b100000 K"
b100000 F"
b100 q
b100000 h
b101 !
$end
#0
$dumpvars
b0 5#
b0 3#
b111111111111111111111100000000 2#
b11111111111111111111110000000000 1#
b0 0#
b0 /#
b0 .#
b0 -#
b0 ,#
b0 +#
b0 *#
b100 )#
bx (#
b0 '#
b100 &#
b0 $#
b100 ##
b100 "#
bx !#
b0 ~"
b100 }"
b0 |"
b100 {"
bx z"
b100 y"
b100 x"
b0 w"
b100 v"
b0 u"
b0 t"
b0 s"
b0 r"
b0 q"
b0 p"
b0 o"
b0 n"
b0 m"
b0 l"
b0 k"
b0 j"
b0 i"
b0 h"
b0 g"
b0 f"
b0 e"
0d"
b1111 c"
b0 b"
b0 a"
b0 `"
b0 _"
b0 ^"
b0 ]"
b0 ["
b0 Z"
b11000100 Y"
b0 W"
b0 V"
b0 U"
b110 T"
b0 S"
b0 R"
0Q"
0P"
0O"
0N"
b0 M"
b0 L"
b0 J"
b0 I"
b0 H"
0G"
b0 E"
b0 D"
b0 C"
0B"
b0 A"
b0 @"
0?"
b0 >"
x="
b110 <"
b0 ;"
b0 :"
b0 9"
b0 8"
07"
06"
b0 5"
b0 4"
b0 3"
b0 2"
b0 1"
b0 0"
b0 /"
0."
0-"
b0 ,"
b0 +"
b0 *"
1)"
0("
b0 '"
b0 &"
bz %"
1$"
b0 #"
b0 ""
b0 !"
b0 ~
b0 }
b0 |
b0 {
b0 z
b0 y
b0 x
bx w
b0 v
b0 u
b0 t
0s
b0 r
b100 p
0o
b0 n
b0 m
b0 l
0k
b0 j
0i
b0 g
b0 f
b0 e
b0 d
0c
b1 b
b100 a
1`
b0 _
b0 ^
b0 ]
b0 \
b0 [
b0 Z
b0 Y
b0 X
b100 W
b0 V
b0 U
b0 T
b0 S
bx R
b100 Q
b0 P
b0 O
b0 N
b0 M
0L
0K
0J
b0 I
b0 H
b0 G
b0 F
b0 E
b0 D
1C
b0 B
b0 A
0@
0?
b0 >
b0 =
b0 <
0;
0:
09
08
07
06
b0 5
b0 4
b0 3
b0 2
b0 1
b0 0
0/
0.
b0 -
b0 ,
b0 +
b0 *
0)
0(
0'
bz &
0%
0$
1#
0"
$end
#5
1"
#10
b11100011101000000000000000010100 R
b11100011101000000000000000010100 z"
b11100011101000000000000000010100 !#
b11100011101000000000000000010100 (#
0"
0#
#15
b11100011101000000001101000000001 R
b11100011101000000001101000000001 z"
b11100011101000000001101000000001 !#
b11100011101000000001101000000001 (#
0C
b100 0
b100 1"
b100 E"
b100 j"
1="
b1 <"
b1 T"
b100100 Y"
1)"
b100 0"
b100 D"
b100 `"
b100 *"
b100 W"
b100 b"
b1110 >"
b1110 L"
b1101 4"
b1101 S"
1?
b100 @"
b100 U"
b101000000000000000010100 A
b101000000000000000010100 9"
b101000000000000000010100 g"
b10100 ,
b10100 ,"
b10100 k"
b1000 x"
b1000 "#
b1000 &#
b1000 Q
b1000 v"
b1000 )#
b1000 y"
b1000 }"
b1000 ##
b100 w"
b100 |"
b100 ~"
b100 '#
b11100011101000000000000000010100 <
b11100011101000000000000000010100 8"
b11100011101000000000000000010100 l"
b11100011101000000000000000010100 *#
b100 4
b100 &"
b100 h"
b100 P
b100 3"
b100 C"
b100 H"
b100 +#
1"
#20
0"
#25
b11100011101000000010000100000011 R
b11100011101000000010000100000011 z"
b11100011101000000010000100000011 !#
b11100011101000000010000100000011 (#
b1 0
b1 1"
b1 E"
b1 j"
b1 0"
b1 D"
b1 `"
b1 *"
b1 W"
b1 b"
b0 w
b10100 U
b10100 f
b10100 v
b1 O
b1 A"
b1 V"
b1 f"
b1 @"
b1 U"
b101000000001101000000001 A
b101000000001101000000001 9"
b101000000001101000000001 g"
b101000000001 ,
b101000000001 ,"
b101000000001 k"
b11111110100000000000000001010000 \
b11111110100000000000000001010000 l
b101000000000000000010100 B
b101000000000000000010100 [
b101000000000000000010100 o"
b10100 -
b10100 Y
b10100 u
b10100 t"
1@
b100 1
b100 T
b100 t
b100 y
b100 s"
b11111110100000000000000001010100 S
b11111110100000000000000001010100 ^
b11111110100000000000000001010100 n
b11111110100000000000000001010100 u"
b11111110100000000000000001010100 $#
b100 5
b100 Z
b100 m
b100 q"
b11100011101000000000000000010100 =
b11100011101000000000000000010100 z
b11100011101000000000000000010100 p"
b11100011101000000001101000000001 <
b11100011101000000001101000000001 8"
b11100011101000000001101000000001 l"
b11100011101000000001101000000001 *#
b1000 4
b1000 &"
b1000 h"
b1000 P
b1000 3"
b1000 C"
b1000 H"
b1000 +#
b1100 x"
b1100 "#
b1100 &#
b1100 Q
b1100 v"
b1100 )#
b1100 y"
b1100 }"
b1100 ##
b1000 w"
b1000 |"
b1000 ~"
b1000 '#
1"
#30
0"
#35
b11100000100100100011000000000010 R
b11100000100100100011000000000010 z"
b11100000100100100011000000000010 !#
b11100000100100100011000000000010 (#
b11 0
b11 1"
b11 E"
b11 j"
b11 0"
b11 D"
b11 `"
b11 *"
b11 W"
b11 b"
b10 O
b10 A"
b10 V"
b10 f"
b11 @"
b11 U"
b101000000010000100000011 A
b101000000010000100000011 9"
b101000000010000100000011 g"
b100000011 ,
b100000011 ,"
b100000011 k"
b10100 w
b1000000000000 U
b1000000000000 f
b1000000000000 v
b10000 x"
b10000 "#
b10000 &#
b10000 Q
b10000 v"
b10000 )#
b10000 y"
b10000 }"
b10000 ##
b1100 w"
b1100 |"
b1100 ~"
b1100 '#
b11100011101000000010000100000011 <
b11100011101000000010000100000011 8"
b11100011101000000010000100000011 l"
b11100011101000000010000100000011 *#
b1100 4
b1100 &"
b1100 h"
b1100 P
b1100 3"
b1100 C"
b1100 H"
b1100 +#
b1 G
b1 {
b1 m"
b11111110100000000110100000000100 \
b11111110100000000110100000000100 l
b101000000001101000000001 B
b101000000001101000000001 [
b101000000001101000000001 o"
b101000000001 -
b101000000001 Y
b101000000001 u
b101000000001 t"
b1 1
b1 T
b1 t
b1 y
b1 s"
b11111110100000000110100000001100 S
b11111110100000000110100000001100 ^
b11111110100000000110100000001100 n
b11111110100000000110100000001100 u"
b11111110100000000110100000001100 $#
b1000 5
b1000 Z
b1000 m
b1000 q"
b11100011101000000001101000000001 =
b11100011101000000001101000000001 z
b11100011101000000001101000000001 p"
b100 *
b100 !"
b100 -#
b100 0#
b11100011101000000000000000010100 >
b11100011101000000000000000010100 ~
1"
#40
0"
#45
b11100000101000000100000000000000 R
b11100000101000000100000000000000 z"
b11100000101000000100000000000000 !#
b11100000101000000100000000000000 (#
1C
b10 0
b10 1"
b10 E"
b10 j"
1."
b10 <"
b10 T"
b1000101 Y"
1)"
b10 2
b10 2"
b10 J"
b10 i"
b10 0"
b10 D"
b10 `"
b10 *"
b10 W"
b10 b"
b10 w
b11000000000000000000000000000000 U
b11000000000000000000000000000000 f
b11000000000000000000000000000000 v
b100 4"
b100 S"
1-"
b10 /"
b10 I"
b10 _"
b10 +"
b10 a"
b10 D
b10 :"
0?
b11 O
b11 A"
b11 V"
b11 f"
b10 @"
b10 U"
b100100100011000000000010 A
b100100100011000000000010 9"
b100100100011000000000010 g"
b10 ,
b10 ,"
b10 k"
b1 H
b1 }
b1 *
b1 !"
b1 -#
b1 0#
b11100011101000000001101000000001 >
b11100011101000000001101000000001 ~
b10 G
b10 {
b10 m"
b11111110100000001000010000001100 \
b11111110100000001000010000001100 l
b101000000010000100000011 B
b101000000010000100000011 [
b101000000010000100000011 o"
b100000011 -
b100000011 Y
b100000011 u
b100000011 t"
b11 1
b11 T
b11 t
b11 y
b11 s"
b11111110100000001000010000011000 S
b11111110100000001000010000011000 ^
b11111110100000001000010000011000 n
b11111110100000001000010000011000 u"
b11111110100000001000010000011000 $#
b1100 5
b1100 Z
b1100 m
b1100 q"
b11100011101000000010000100000011 =
b11100011101000000010000100000011 z
b11100011101000000010000100000011 p"
b11100000100100100011000000000010 <
b11100000100100100011000000000010 8"
b11100000100100100011000000000010 l"
b11100000100100100011000000000010 *#
b10000 4
b10000 &"
b10000 h"
b10000 P
b10000 3"
b10000 C"
b10000 H"
b10000 +#
b10100 x"
b10100 "#
b10100 &#
b10100 Q
b10100 v"
b10100 )#
b10100 y"
b10100 }"
b10100 ##
b10000 w"
b10000 |"
b10000 ~"
b10000 '#
1"
#50
0"
#55
b11100000010001000101000100000100 R
b11100000010001000101000100000100 z"
b11100000010001000101000100000100 !#
b11100000010001000101000100000100 (#
b0 0
b0 1"
b0 E"
b0 j"
b11 <"
b11 T"
0."
b1100100 Y"
1)"
b0 2
b0 2"
b0 J"
b0 i"
b0 0"
b0 D"
b0 `"
b0 *"
b0 W"
b0 b"
b101 4"
b101 S"
0-"
b0 /"
b0 I"
b0 _"
b0 +"
b0 a"
b0 D
b0 :"
b100 O
b100 A"
b100 V"
b100 f"
b0 @"
b0 U"
b101000000100000000000000 A
b101000000100000000000000 9"
b101000000100000000000000 g"
b0 ,
b0 ,"
b0 k"
b10 U
b10 f
b10 v
b11000 x"
b11000 "#
b11000 &#
b11000 Q
b11000 v"
b11000 )#
b11000 y"
b11000 }"
b11000 ##
b10100 w"
b10100 |"
b10100 ~"
b10100 '#
b11100000101000000100000000000000 <
b11100000101000000100000000000000 8"
b11100000101000000100000000000000 l"
b11100000101000000100000000000000 *#
b10100 4
b10100 &"
b10100 h"
b10100 P
b10100 3"
b10100 C"
b10100 H"
b10100 +#
b11 G
b11 {
b11 m"
b11111110010010001100000000001000 \
b11111110010010001100000000001000 l
b100100100011000000000010 B
b100100100011000000000010 [
b100100100011000000000010 o"
b10 -
b10 Y
b10 u
b10 t"
0@
b10 3
b10 V
b10 g
b10 r"
b10 1
b10 T
b10 t
b10 y
b10 s"
b11111110010010001100000000011000 S
b11111110010010001100000000011000 ^
b11111110010010001100000000011000 n
b11111110010010001100000000011000 u"
b11111110010010001100000000011000 $#
b10000 5
b10000 Z
b10000 m
b10000 q"
b11100000100100100011000000000010 =
b11100000100100100011000000000010 z
b11100000100100100011000000000010 p"
b10 H
b10 }
b11 *
b11 !"
b11 -#
b11 0#
b11100011101000000010000100000011 >
b11100011101000000010000100000011 ~
1"
#60
0"
#65
b11100000110000000110000010100000 R
b11100000110000000110000010100000 z"
b11100000110000000110000010100000 !#
b11100000110000000110000010100000 (#
b100 0
b100 1"
b100 E"
b100 j"
b100 <"
b100 T"
b10000100 Y"
1)"
b100 2
b100 2"
b100 J"
b100 i"
b100 0"
b100 D"
b100 `"
b100 *"
b100 W"
b100 b"
b0 U
b0 f
b0 v
b10 4"
b10 S"
b100 /"
b100 I"
b100 _"
b100 +"
b100 a"
b100 D
b100 :"
b101 O
b101 A"
b101 V"
b101 f"
b100 @"
b100 U"
b10001000101000100000100 A
b10001000101000100000100 9"
b10001000101000100000100 g"
b100000100 ,
b100000100 ,"
b100000100 k"
b11 H
b11 }
b10 *
b10 !"
b10 -#
b10 0#
b11100000100100100011000000000010 >
b11100000100100100011000000000010 ~
b100 G
b100 {
b100 m"
b11111110100000010000000000000000 \
b11111110100000010000000000000000 l
b101000000100000000000000 B
b101000000100000000000000 [
b101000000100000000000000 o"
b0 -
b0 Y
b0 u
b0 t"
b0 3
b0 V
b0 g
b0 r"
b0 1
b0 T
b0 t
b0 y
b0 s"
b11111110100000010000000000010100 S
b11111110100000010000000000010100 ^
b11111110100000010000000000010100 n
b11111110100000010000000000010100 u"
b11111110100000010000000000010100 $#
b10100 5
b10100 Z
b10100 m
b10100 q"
b11100000101000000100000000000000 =
b11100000101000000100000000000000 z
b11100000101000000100000000000000 p"
b11100000010001000101000100000100 <
b11100000010001000101000100000100 8"
b11100000010001000101000100000100 l"
b11100000010001000101000100000100 *#
b11000 4
b11000 &"
b11000 h"
b11000 P
b11000 3"
b11000 C"
b11000 H"
b11000 +#
b11100 x"
b11100 "#
b11100 &#
b11100 Q
b11100 v"
b11100 )#
b11100 y"
b11100 }"
b11100 ##
b11000 w"
b11000 |"
b11000 ~"
b11000 '#
1"
#70
0"
#75
b11100001100001010111000101000010 R
b11100001100001010111000101000010 z"
b11100001100001010111000101000010 !#
b11100001100001010111000101000010 (#
b0 0
b0 1"
b0 E"
b0 j"
b101 <"
b101 T"
b10100100 Y"
1)"
b0 2
b0 2"
b0 J"
b0 i"
b0 0"
b0 D"
b0 `"
b0 *"
b0 W"
b0 b"
b110 4"
b110 S"
b0 /"
b0 I"
b0 _"
b0 +"
b0 a"
b0 D
b0 :"
b110 O
b110 A"
b110 V"
b110 f"
b0 @"
b0 U"
b110000000110000010100000 A
b110000000110000010100000 9"
b110000000110000010100000 g"
b10100000 ,
b10100000 ,"
b10100000 k"
b10000 U
b10000 f
b10000 v
b100000 x"
b100000 "#
b100000 &#
b100000 Q
b100000 v"
b100000 )#
b100000 y"
b100000 }"
b100000 ##
b11100 w"
b11100 |"
b11100 ~"
b11100 '#
b11100000110000000110000010100000 <
b11100000110000000110000010100000 8"
b11100000110000000110000010100000 l"
b11100000110000000110000010100000 *#
b11100 4
b11100 &"
b11100 h"
b11100 P
b11100 3"
b11100 C"
b11100 H"
b11100 +#
b101 G
b101 {
b101 m"
b1000100010100010000010000 \
b1000100010100010000010000 l
b10001000101000100000100 B
b10001000101000100000100 [
b10001000101000100000100 o"
b100000100 -
b100000100 Y
b100000100 u
b100000100 t"
b100 3
b100 V
b100 g
b100 r"
b100 1
b100 T
b100 t
b100 y
b100 s"
b1000100010100010000101000 S
b1000100010100010000101000 ^
b1000100010100010000101000 n
b1000100010100010000101000 u"
b1000100010100010000101000 $#
b11000 5
b11000 Z
b11000 m
b11000 q"
b11100000010001000101000100000100 =
b11100000010001000101000100000100 z
b11100000010001000101000100000100 p"
b100 H
b100 }
b0 *
b0 !"
b0 -#
b0 0#
b11100000101000000100000000000000 >
b11100000101000000100000000000000 ~
1"
#80
0"
#85
b11100000000001111000000000000011 R
b11100000000001111000000000000011 z"
b11100000000001111000000000000011 !#
b11100000000001111000000000000011 (#
b10 0
b10 1"
b10 E"
b10 j"
b111 <"
b111 T"
b11100100 Y"
1)"
b101 2
b101 2"
b101 J"
b101 i"
b10 0"
b10 D"
b10 `"
b10 *"
b10 W"
b10 b"
b0 U
b0 f
b0 v
b1100 4"
b1100 S"
b101 /"
b101 I"
b101 _"
b101 +"
b101 a"
b101 D
b101 :"
b111 O
b111 A"
b111 V"
b111 f"
b10 @"
b10 U"
b100001010111000101000010 A
b100001010111000101000010 9"
b100001010111000101000010 g"
b101000010 ,
b101000010 ,"
b101000010 k"
b101 H
b101 }
b100 *
b100 !"
b100 -#
b100 0#
b11100000010001000101000100000100 >
b11100000010001000101000100000100 ~
b110 G
b110 {
b110 m"
b11111111000000011000001010000000 \
b11111111000000011000001010000000 l
b110000000110000010100000 B
b110000000110000010100000 [
b110000000110000010100000 o"
b10100000 -
b10100000 Y
b10100000 u
b10100000 t"
b0 3
b0 V
b0 g
b0 r"
b0 1
b0 T
b0 t
b0 y
b0 s"
b11111111000000011000001010011100 S
b11111111000000011000001010011100 ^
b11111111000000011000001010011100 n
b11111111000000011000001010011100 u"
b11111111000000011000001010011100 $#
b11100 5
b11100 Z
b11100 m
b11100 q"
b11100000110000000110000010100000 =
b11100000110000000110000010100000 z
b11100000110000000110000010100000 p"
b11100001100001010111000101000010 <
b11100001100001010111000101000010 8"
b11100001100001010111000101000010 l"
b11100001100001010111000101000010 *#
b100000 4
b100000 &"
b100000 h"
b100000 P
b100000 3"
b100000 C"
b100000 H"
b100000 +#
b100100 x"
b100100 "#
b100100 &#
b100100 Q
b100100 v"
b100100 )#
b100100 y"
b100100 }"
b100100 ##
b100000 w"
b100000 |"
b100000 ~"
b100000 '#
1"
#90
0"
#95
b11100001111000001001000000000110 R
b11100001111000001001000000000110 z"
b11100001111000001001000000000110 !#
b11100001111000001001000000000110 (#
b11 0
b11 1"
b11 E"
b11 j"
b110 <"
b110 T"
b11000100 Y"
1)"
b111 2
b111 2"
b111 J"
b111 i"
b11 0"
b11 D"
b11 `"
b11 *"
b11 W"
b11 b"
b0 4"
b0 S"
b111 /"
b111 I"
b111 _"
b111 +"
b111 a"
b111 D
b111 :"
b1000 O
b1000 A"
b1000 V"
b1000 f"
b11 @"
b11 U"
b1111000000000000011 A
b1111000000000000011 9"
b1111000000000000011 g"
b11 ,
b11 ,"
b11 k"
b101000 x"
b101000 "#
b101000 &#
b101000 Q
b101000 v"
b101000 )#
b101000 y"
b101000 }"
b101000 ##
b100100 w"
b100100 |"
b100100 ~"
b100100 '#
b11100000000001111000000000000011 <
b11100000000001111000000000000011 8"
b11100000000001111000000000000011 l"
b11100000000001111000000000000011 *#
b100100 4
b100100 &"
b100100 h"
b100100 P
b100100 3"
b100100 C"
b100100 H"
b100100 +#
b111 G
b111 {
b111 m"
b11111110000101011100010100001000 \
b11111110000101011100010100001000 l
b100001010111000101000010 B
b100001010111000101000010 [
b100001010111000101000010 o"
b101000010 -
b101000010 Y
b101000010 u
b101000010 t"
b101 3
b101 V
b101 g
b101 r"
b10 1
b10 T
b10 t
b10 y
b10 s"
b11111110000101011100010100101000 S
b11111110000101011100010100101000 ^
b11111110000101011100010100101000 n
b11111110000101011100010100101000 u"
b11111110000101011100010100101000 $#
b100000 5
b100000 Z
b100000 m
b100000 q"
b11100001100001010111000101000010 =
b11100001100001010111000101000010 z
b11100001100001010111000101000010 p"
b110 H
b110 }
b0 *
b0 !"
b0 -#
b0 0#
b11100000110000000110000010100000 >
b11100000110000000110000010100000 ~
1"
#100
0"
