debugged_ARM/MEM_STAGE/ARM_TB.vcd
$date
	Wed Dec 20 18:15:15 2023
$end
$version
	Icarus Verilog
$end
$timescale
	1ns
$end
$scope module ARM_TB $end
$var parameter 32 ! HCLK $end
$var reg 1 " clk $end
$var reg 1 # rst $end
$scope module arm $end
$var wire 1 $ Branch_taken $end
$var wire 1 " clk $end
$var wire 1 % hazard $end
$var wire 4 & hazardRm_id_out [3:0] $end
$var wire 1 # rst $end
$var wire 1 ' wb_en_mem_to_wb_reg_out $end
$var wire 1 ( wb_en_id_out $end
$var wire 1 ) wb_en_id_ex_reg_out $end
$var wire 1 * wb_en_ex_mem_reg_out $end
$var wire 32 + val_rm_ex_mem_out [31:0] $end
$var wire 4 , status [3:0] $end
$var wire 12 - shift_operand_if_out [11:0] $end
$var wire 12 . shift_operand_id_ex_reg_out [11:0] $end
$var wire 1 / s_id_out $end
$var wire 1 0 s_id_ex_reg_out $end
$var wire 32 1 reg2_id_out [31:0] $end
$var wire 32 2 reg2_id_ex_reg_out [31:0] $end
$var wire 32 3 reg1_id_out [31:0] $end
$var wire 32 4 reg1_id_ex_reg_out [31:0] $end
$var wire 32 5 pc_id_out [31:0] $end
$var wire 32 6 pc_id_ex_reg_out [31:0] $end
$var wire 1 7 mem_write_id_out $end
$var wire 1 8 mem_write_id_ex_reg_out $end
$var wire 1 9 mem_write_en_ex_mem_out $end
$var wire 1 : mem_read_id_out $end
$var wire 1 ; mem_read_id_ex_reg_out $end
$var wire 1 < mem_read_en_mem_to_wb_reg_out $end
$var wire 1 = mem_read_en_ex_mem_reg_out $end
$var wire 32 > mem_data_out_mem_ro_wb_reg_out [31:0] $end
$var wire 32 ? instruction_if_to_id_register_out [31:0] $end
$var wire 32 @ instruction_id_ex_reg_out [31:0] $end
$var wire 32 A instruction_exe_mem_out [31:0] $end
$var wire 1 B imm_id_out $end
$var wire 1 C imm_id_ex_reg_out $end
$var wire 24 D imm24_id_out [23:0] $end
$var wire 24 E imm24_id_ex_reg_out [23:0] $end
$var wire 1 F hazard_two_scr_id_out $end
$var wire 4 G hazardRn_id_out [3:0] $end
$var wire 4 H exe_cmd_id_out [3:0] $end
$var wire 4 I exe_cmd_id_ex_reg_out [3:0] $end
$var wire 4 J dest_mem_to_wb_reg_out [3:0] $end
$var wire 4 K dest_id_ex_reg_out [3:0] $end
$var wire 4 L dest_ex_mem_out [3:0] $end
$var wire 32 M data_read_out [31:0] $end
$var wire 1 N carry_id_ex_reg_out $end
$var wire 1 O b_id_out $end
$var wire 1 P b_id_ex_reg_out $end
$var wire 32 Q alu_res_mem_to_wb_reg_out [31:0] $end
$var wire 32 R alu_res_ex_mem_reg_out [31:0] $end
$var wire 32 S alu_res [31:0] $end
$var wire 4 T Rd_id_out [3:0] $end
$var wire 32 U PC_if_to_id_register_out [31:0] $end
$var wire 32 V PC_if_stage_out [31:0] $end
$var wire 32 W Instruction_if_stage_out [31:0] $end
$var wire 32 X BranchAddr [31:0] $end
$scope module stage_MEM_to_WB_register $end
$var wire 1 " clk $end
$var wire 1 # rst $end
$var wire 1 * wbEnIn $end
$var wire 1 = memREnIn $end
$var wire 32 Y memDataIn [31:0] $end
$var wire 4 Z destIn [3:0] $end
$var wire 32 [ aluResIn [31:0] $end
$var reg 32 \ aluResOut [31:0] $end
$var reg 4 ] destOut [3:0] $end
$var reg 32 ^ memDataOut [31:0] $end
$var reg 1 < memREnOut $end
$var reg 1 ' wbEnOut $end
$upscope $end
$scope module stage_exe $end
$var wire 1 " clk $end
$var wire 1 # rst $end
$var wire 32 _ valRm [31:0] $end
$var wire 32 ` val2 [31:0] $end
$var wire 32 a val1 [31:0] $end
$var wire 4 b status_in [3:0] $end
$var wire 4 c status [3:0] $end
$var wire 12 d shift_operand [11:0] $end
$var wire 1 0 s $end
$var wire 32 e pc [31:0] $end
$var wire 1 8 mem_write_en $end
$var wire 1 ; mem_read_en $end
$var wire 24 f imm_signed_24 [23:0] $end
$var wire 32 g imm24SignExt [31:0] $end
$var wire 1 C imm $end
$var wire 4 h exe_cmd [3:0] $end
$var wire 1 N carry $end
$var wire 32 i branch_addr [31:0] $end
$var wire 32 j alu_res [31:0] $end
$scope module alu $end
$var wire 1 k z $end
$var wire 4 l status [3:0] $end
$var wire 32 m nCarryExt [31:0] $end
$var wire 1 n n $end
$var wire 4 o exeCmd [3:0] $end
$var wire 1 N carryIn $end
$var wire 32 p carryExt [31:0] $end
$var wire 32 q b [31:0] $end
$var wire 32 r a [31:0] $end
$var parameter 32 s N $end
$var reg 1 t c $end
$var reg 32 u out [31:0] $end
$var reg 1 v v $end
$upscope $end
$scope module branch_calculator $end
$var wire 32 w x1 [31:0] $end
$var wire 32 x x0 [31:0] $end
$var wire 32 y res [31:0] $end
$upscope $end
$scope module status_register $end
$var wire 1 " clk $end
$var wire 1 z clr $end
$var wire 4 { in [3:0] $end
$var wire 1 # rst $end
$var wire 1 0 ld $end
$var parameter 32 | N $end
$var reg 4 } out [3:0] $end
$upscope $end
$scope module val2generator $end
$var wire 1 ~ memInst $end
$var wire 32 !" valRm [31:0] $end
$var wire 12 "" shift_operand [11:0] $end
$var wire 1 C imm $end
$var reg 32 #" val2 [31:0] $end
$var integer 32 $" i [31:0] $end
$upscope $end
$upscope $end
$scope module stage_exe_to_mem_reg $end
$var wire 32 %" alu_res_in [31:0] $end
$var wire 1 " clk $end
$var wire 1 # rst $end
$var wire 1 ) wb_en_in $end
$var wire 32 &" val_rm_in [31:0] $end
$var wire 1 8 mem_write_en_in $end
$var wire 1 ; mem_read_en_in $end
$var wire 32 '" instruction_in [31:0] $end
$var wire 4 (" dest_in [3:0] $end
$var reg 32 )" alu_res_out [31:0] $end
$var reg 4 *" dest_out [3:0] $end
$var reg 32 +" instruction_out [31:0] $end
$var reg 1 = mem_read_en_out $end
$var reg 1 9 mem_write_en_out $end
$var reg 32 ," val_rm_out [31:0] $end
$var reg 1 * wb_en_out $end
$upscope $end
$scope module stage_id $end
$var wire 4 -" Dest_wb [3:0] $end
$var wire 32 ." Value_wb [31:0] $end
$var wire 1 " clk $end
$var wire 1 /" final_condition $end
$var wire 1 % hazard $end
$var wire 4 0" hazardRdm [3:0] $end
$var wire 1 F hazardTwoSrc $end
$var wire 32 1" pc_out [31:0] $end
$var wire 1 # rst $end
$var wire 4 2" status [3:0] $end
$var wire 1 3" wb_wb_en $end
$var wire 1 ( wb_en_out $end
$var wire 1 4" wb_en $end
$var wire 4 5" src2 [3:0] $end
$var wire 4 6" src1 [3:0] $end
$var wire 12 7" shift_operand [11:0] $end
$var wire 1 / s_out $end
$var wire 1 8" s_in $end
$var wire 1 9" s $end
$var wire 32 :" regRn [31:0] $end
$var wire 32 ;" regRm [31:0] $end
$var wire 32 <" reg2 [31:0] $end
$var wire 32 =" reg1 [31:0] $end
$var wire 32 >" pc_in [31:0] $end
$var wire 4 ?" op_code [3:0] $end
$var wire 2 @" mode [1:0] $end
$var wire 1 7 mem_write_out $end
$var wire 1 A" mem_write $end
$var wire 1 : mem_read_out $end
$var wire 1 B" mem_read $end
$var wire 32 C" instruction_in [31:0] $end
$var wire 24 D" imm24 [23:0] $end
$var wire 1 B imm $end
$var wire 4 E" hazardRn [3:0] $end
$var wire 4 F" exe_cmd_out [3:0] $end
$var wire 4 G" exe_cmd [3:0] $end
$var wire 1 H" cond_result $end
$var wire 4 I" cond [3:0] $end
$var wire 1 O b_out $end
$var wire 1 J" b $end
$var wire 4 K" Rm [3:0] $end
$var wire 4 L" R_destination [3:0] $end
$scope module Rm15 $end
$var wire 1 M" sel $end
$var wire 32 N" x1 [31:0] $end
$var wire 32 O" x0 [31:0] $end
$var wire 32 P" res [31:0] $end
$var parameter 32 Q" N $end
$upscope $end
$scope module Rn15 $end
$var wire 1 R" sel $end
$var wire 32 S" x1 [31:0] $end
$var wire 32 T" x0 [31:0] $end
$var wire 32 U" res [31:0] $end
$var parameter 32 V" N $end
$upscope $end
$scope module condition_check $end
$var wire 4 W" cond [3:0] $end
$var wire 4 X" status [3:0] $end
$var wire 1 Y" z $end
$var wire 1 Z" v $end
$var wire 1 [" n $end
$var wire 1 \" c $end
$var reg 1 H" result $end
$upscope $end
$scope module control_unit $end
$var wire 2 ]" mode [1:0] $end
$var wire 4 ^" op_code [3:0] $end
$var wire 1 8" s_in $end
$var reg 1 J" b $end
$var reg 4 _" exe_cmd [3:0] $end
$var reg 1 B" mem_read $end
$var reg 1 A" mem_write $end
$var reg 1 9" s_out $end
$var reg 1 4" wb_en $end
$upscope $end
$scope module mux_src2 $end
$var wire 1 A" sel $end
$var wire 4 `" x0 [3:0] $end
$var wire 4 a" x1 [3:0] $end
$var wire 4 b" res [3:0] $end
$var parameter 32 c" N $end
$upscope $end
$scope module mx $end
$var wire 1 /" sel $end
$var wire 9 d" x0 [8:0] $end
$var wire 9 e" x1 [8:0] $end
$var wire 9 f" res [8:0] $end
$var parameter 32 g" N $end
$upscope $end
$scope module register_file $end
$var wire 4 h" Dest_wb [3:0] $end
$var wire 32 i" Result_wb [31:0] $end
$var wire 1 " clk $end
$var wire 32 j" reg1 [31:0] $end
$var wire 32 k" reg2 [31:0] $end
$var wire 1 # rst $end
$var wire 4 l" src1 [3:0] $end
$var wire 4 m" src2 [3:0] $end
$var wire 1 3" writeBack_en $end
$var integer 32 n" i [31:0] $end
$upscope $end
$upscope $end
$scope module stage_id_to_ex_register $end
$var wire 1 O b_in $end
$var wire 1 o" carry_in $end
$var wire 1 " clk $end
$var wire 4 p" cmd_exe_in [3:0] $end
$var wire 4 q" dest_in [3:0] $end
$var wire 1 $ flush $end
$var wire 24 r" imm24_in [23:0] $end
$var wire 1 B imm_in $end
$var wire 1 : mem_read_in $end
$var wire 1 7 mem_write_in $end
$var wire 32 s" pc_in [31:0] $end
$var wire 32 t" reg1_in [31:0] $end
$var wire 32 u" reg2_in [31:0] $end
$var wire 1 # rst $end
$var wire 1 / s_in $end
$var wire 12 v" shift_operand_in [11:0] $end
$var wire 1 ( wb_en_in $end
$var wire 32 w" instruction_in [31:0] $end
$var reg 1 P b_out $end
$var reg 1 N carry_out $end
$var reg 4 x" dest_out [3:0] $end
$var reg 4 y" exe_cmd_out [3:0] $end
$var reg 24 z" imm24_out [23:0] $end
$var reg 1 C imm_out $end
$var reg 32 {" instruction_out [31:0] $end
$var reg 1 ; mem_read_out $end
$var reg 1 8 mem_write_out $end
$var reg 32 |" pc_out [31:0] $end
$var reg 32 }" reg1_out [31:0] $end
$var reg 32 ~" reg2_out [31:0] $end
$var reg 1 0 s_out $end
$var reg 12 !# shift_operand_out [11:0] $end
$var reg 1 ) wb_en_out $end
$upscope $end
$scope module stage_if $end
$var wire 32 "# BranchAddr [31:0] $end
$var wire 1 $ Branch_taken $end
$var wire 32 ## PC [31:0] $end
$var wire 1 " clk $end
$var wire 1 % freeze $end
$var wire 1 # rst $end
$var wire 32 $# pc_reg_out [31:0] $end
$var wire 32 %# pc_reg_in [31:0] $end
$var wire 32 &# pc_adder_out [31:0] $end
$var wire 32 '# Instruction [31:0] $end
$scope module adder $end
$var wire 32 (# x1 [31:0] $end
$var wire 32 )# x0 [31:0] $end
$var wire 32 *# res [31:0] $end
$upscope $end
$scope module instruction_memory $end
$var wire 1 " clk $end
$var wire 1 # rst $end
$var wire 32 +# PC [31:0] $end
$var reg 32 ,# Instruction [31:0] $end
$upscope $end
$scope module mux $end
$var wire 32 -# res [31:0] $end
$var wire 1 $ sel $end
$var wire 32 .# x0 [31:0] $end
$var wire 32 /# x1 [31:0] $end
$var parameter 32 0# N $end
$upscope $end
$scope module pc $end
$var wire 1 " clk $end
$var wire 1 % freeze $end
$var wire 32 1# in [31:0] $end
$var wire 1 # rst $end
$var reg 32 2# out [31:0] $end
$upscope $end
$upscope $end
$scope module stage_if_to_id_register $end
$var wire 1 " clk $end
$var wire 1 $ flush $end
$var wire 1 % freeze $end
$var wire 32 3# instruction_in [31:0] $end
$var wire 32 4# pc_in [31:0] $end
$var wire 1 # rst $end
$var reg 32 5# instruction_out [31:0] $end
$var reg 32 6# pc_out [31:0] $end
$upscope $end
$scope module stage_mem $end
$var wire 32 7# alu_re_addr [31:0] $end
$var wire 1 " clk $end
$var wire 1 = mem_read_en $end
$var wire 1 9 mem_write_en $end
$var wire 1 # rst $end
$var wire 32 8# val_rm [31:0] $end
$var wire 1 * wb_en $end
$var wire 32 9# data_out [31:0] $end
$scope module data_memory $end
$var wire 1 " clk $end
$var wire 32 :# memAdr [31:0] $end
$var wire 1 = memRead $end
$var wire 1 9 memWrite $end
$var wire 1 # rst $end
$var wire 32 ;# writeData [31:0] $end
$var wire 32 <# dataAdr [31:0] $end
$var wire 32 =# adr [31:0] $end
$var wire 32 ># Data_Memory_Output_tmp [31:0] $end
$var parameter 32 ?# WordCount $end
$var reg 32 @# readData [31:0] $end
$upscope $end
$upscope $end
$upscope $end
$upscope $end
$enddefinitions $end
$comment Show the parameter values. $end
$dumpall
b1000000 ?#
b100000 0#
b1001 g"
b100 c"
b100000 V"
b100000 Q"
b100 |
b100000 s
b101 !
$end
#0
$dumpvars
b0 @#
b0 >#
b111111111111111111111100000000 =#
b11111111111111111111110000000000 <#
b0 ;#
b0 :#
b0 9#
b0 8#
b0 7#
b0 6#
b0 5#
b100 4#
bx 3#
b0 2#
b100 1#
b0 /#
b100 .#
b100 -#
bx ,#
b0 +#
b100 *#
b0 )#
b100 (#
bx '#
b100 &#
b100 %#
b0 $#
b100 ##
b0 "#
b0 !#
b0 ~"
b0 }"
b0 |"
b0 {"
b0 z"
b0 y"
b0 x"
b0 w"
b0 v"
b0 u"
b0 t"
b0 s"
b0 r"
b0 q"
b0 p"
0o"
b1111 n"
b0 m"
b0 l"
b0 k"
b0 j"
b0 i"
b0 h"
b0 f"
b0 e"
b11000100 d"
b0 b"
b0 a"
b0 `"
b110 _"
b0 ^"
b0 ]"
0\"
0["
0Z"
0Y"
b0 X"
b0 W"
b0 U"
b0 T"
b0 S"
0R"
b0 P"
b0 O"
b0 N"
0M"
b0 L"
b0 K"
0J"
b0 I"
0H"
b110 G"
b0 F"
b0 E"
b0 D"
b0 C"
0B"
0A"
b0 @"
b0 ?"
b0 >"
b0 ="
b0 <"
b0 ;"
b0 :"
09"
08"
b0 7"
b0 6"
b0 5"
14"
03"
b0 2"
b0 1"
bz 0"
1/"
b0 ."
b0 -"
b0 ,"
b0 +"
b0 *"
b0 )"
b0 ("
b0 '"
b0 &"
b0 %"
bx $"
b0 #"
b0 ""
b0 !"
0~
b0 }
b100 {
0z
b0 y
b0 x
b0 w
0v
b0 u
0t
b0 r
b0 q
b0 p
b0 o
0n
b1 m
b100 l
1k
b0 j
b0 i
b0 h
b0 g
b0 f
b0 e
b0 d
b0 c
b100 b
b0 a
b0 `
b0 _
b0 ^
b0 ]
b0 \
b0 [
b0 Z
b0 Y
b0 X
bx W
b100 V
b0 U
b0 T
b0 S
b0 R
b0 Q
0P
0O
0N
b0 M
b0 L
b0 K
b0 J
b0 I
b0 H
b0 G
1F
b0 E
b0 D
0C
0B
b0 A
b0 @
b0 ?
b0 >
0=
0<
0;
0:
09
08
07
b0 6
b0 5
b0 4
b0 3
b0 2
b0 1
00
0/
b0 .
b0 -
b0 ,
b0 +
0*
0)
0(
0'
bz &
0%
0$
1#
0"
$end
#5
1"
#10
b11100011101000000000000000010100 W
b11100011101000000000000000010100 '#
b11100011101000000000000000010100 ,#
b11100011101000000000000000010100 3#
0"
0#
#15
b11100011101000000001101000000001 W
b11100011101000000001101000000001 '#
b11100011101000000001101000000001 ,#
b11100011101000000001101000000001 3#
0F
b100 1
b100 <"
b100 P"
b100 u"
1H"
b1 G"
b1 _"
b100100 d"
14"
b100 ;"
b100 O"
b100 k"
b100 5"
b100 b"
b100 m"
b1110 I"
b1110 W"
b1101 ?"
b1101 ^"
1B
b100 K"
b100 `"
b101000000000000000010100 D
b101000000000000000010100 D"
b101000000000000000010100 r"
b10100 -
b10100 7"
b10100 v"
b1000 %#
b1000 -#
b1000 1#
b1000 V
b1000 ##
b1000 4#
b1000 &#
b1000 *#
b1000 .#
b100 $#
b100 )#
b100 +#
b100 2#
b11100011101000000000000000010100 ?
b11100011101000000000000000010100 C"
b11100011101000000000000000010100 w"
b11100011101000000000000000010100 5#
b100 5
b100 1"
b100 s"
b100 U
b100 >"
b100 N"
b100 S"
b100 6#
1"
#20
0"
#25
b11100011101000000010000100000011 W
b11100011101000000010000100000011 '#
b11100011101000000010000100000011 ,#
b11100011101000000010000100000011 3#
b1 1
b1 <"
b1 P"
b1 u"
b1 ;"
b1 O"
b1 k"
b1 5"
b1 b"
b1 m"
b0 $"
b10100 `
b10100 q
b10100 #"
b1 T
b1 L"
b1 a"
b1 q"
b1 K"
b1 `"
b101000000001101000000001 D
b101000000001101000000001 D"
b101000000001101000000001 r"
b101000000001 -
b101000000001 7"
b101000000001 v"
b11111110100000000000000001010000 g
b11111110100000000000000001010000 w
b101000000000000000010100 E
b101000000000000000010100 f
b101000000000000000010100 z"
b10100 .
b10100 d
b10100 ""
b10100 !#
1C
b100 2
b100 _
b100 !"
b100 &"
b100 ~"
b11111110100000000000000001010100 X
b11111110100000000000000001010100 i
b11111110100000000000000001010100 y
b11111110100000000000000001010100 "#
b11111110100000000000000001010100 /#
b100 6
b100 e
b100 x
b100 |"
b11100011101000000000000000010100 @
b11100011101000000000000000010100 '"
b11100011101000000000000000010100 {"
b11100011101000000001101000000001 ?
b11100011101000000001101000000001 C"
b11100011101000000001101000000001 w"
b11100011101000000001101000000001 5#
b1000 5
b1000 1"
b1000 s"
b1000 U
b1000 >"
b1000 N"
b1000 S"
b1000 6#
b1100 %#
b1100 -#
b1100 1#
b1100 V
b1100 ##
b1100 4#
b1100 &#
b1100 *#
b1100 .#
b1000 $#
b1000 )#
b1000 +#
b1000 2#
1"
#30
0"
#35
b11100000100100100011000000000010 W
b11100000100100100011000000000010 '#
b11100000100100100011000000000010 ,#
b11100000100100100011000000000010 3#
b11 1
b11 <"
b11 P"
b11 u"
b11 ;"
b11 O"
b11 k"
b11 5"
b11 b"
b11 m"
b10 T
b10 L"
b10 a"
b10 q"
b11 K"
b11 `"
b101000000010000100000011 D
b101000000010000100000011 D"
b101000000010000100000011 r"
b100000011 -
b100000011 7"
b100000011 v"
b10100 $"
b1000000000000 `
b1000000000000 q
b1000000000000 #"
b10000 %#
b10000 -#
b10000 1#
b10000 V
b10000 ##
b10000 4#
b10000 &#
b10000 *#
b10000 .#
b1100 $#
b1100 )#
b1100 +#
b1100 2#
b11100011101000000010000100000011 ?
b11100011101000000010000100000011 C"
b11100011101000000010000100000011 w"
b11100011101000000010000100000011 5#
b1100 5
b1100 1"
b1100 s"
b1100 U
b1100 >"
b1100 N"
b1100 S"
b1100 6#
b1 K
b1 ("
b1 x"
b11111110100000000110100000000100 g
b11111110100000000110100000000100 w
b101000000001101000000001 E
b101000000001101000000001 f
b101000000001101000000001 z"
b101000000001 .
b101000000001 d
b101000000001 ""
b101000000001 !#
b1 2
b1 _
b1 !"
b1 &"
b1 ~"
b11111110100000000110100000001100 X
b11111110100000000110100000001100 i
b11111110100000000110100000001100 y
b11111110100000000110100000001100 "#
b11111110100000000110100000001100 /#
b1000 6
b1000 e
b1000 x
b1000 |"
b11100011101000000001101000000001 @
b11100011101000000001101000000001 '"
b11100011101000000001101000000001 {"
b100 +
b100 Y
b100 ,"
b100 8#
b100 ;#
b11100011101000000000000000010100 A
b11100011101000000000000000010100 +"
1"
#40
0"
#45
b11100000101000000100000000000000 W
b11100000101000000100000000000000 '#
b11100000101000000100000000000000 ,#
b11100000101000000100000000000000 3#
1F
b10 1
b10 <"
b10 P"
b10 u"
19"
b10 G"
b10 _"
b1000101 d"
14"
b10 3
b10 ="
b10 U"
b10 t"
b10 ;"
b10 O"
b10 k"
b10 5"
b10 b"
b10 m"
b10 $"
b11000000000000000000000000000000 `
b11000000000000000000000000000000 q
b11000000000000000000000000000000 #"
b100 ?"
b100 ^"
18"
b10 :"
b10 T"
b10 j"
b10 6"
b10 l"
b10 G
b10 E"
0B
b11 T
b11 L"
b11 a"
b11 q"
b10 K"
b10 `"
b100100100011000000000010 D
b100100100011000000000010 D"
b100100100011000000000010 r"
b10 -
b10 7"
b10 v"
b100 >
b100 ^
b1 L
b1 Z
b1 *"
b1 +
b1 Y
b1 ,"
b1 8#
b1 ;#
b11100011101000000001101000000001 A
b11100011101000000001101000000001 +"
b10 K
b10 ("
b10 x"
b11111110100000001000010000001100 g
b11111110100000001000010000001100 w
b101000000010000100000011 E
b101000000010000100000011 f
b101000000010000100000011 z"
b100000011 .
b100000011 d
b100000011 ""
b100000011 !#
b11 2
b11 _
b11 !"
b11 &"
b11 ~"
b11111110100000001000010000011000 X
b11111110100000001000010000011000 i
b11111110100000001000010000011000 y
b11111110100000001000010000011000 "#
b11111110100000001000010000011000 /#
b1100 6
b1100 e
b1100 x
b1100 |"
b11100011101000000010000100000011 @
b11100011101000000010000100000011 '"
b11100011101000000010000100000011 {"
b11100000100100100011000000000010 ?
b11100000100100100011000000000010 C"
b11100000100100100011000000000010 w"
b11100000100100100011000000000010 5#
b10000 5
b10000 1"
b10000 s"
b10000 U
b10000 >"
b10000 N"
b10000 S"
b10000 6#
b10100 %#
b10100 -#
b10100 1#
b10100 V
b10100 ##
b10100 4#
b10100 &#
b10100 *#
b10100 .#
b10000 $#
b10000 )#
b10000 +#
b10000 2#
1"
#50
0"
#55
b11100000010001000101000100000100 W
b11100000010001000101000100000100 '#
b11100000010001000101000100000100 ,#
b11100000010001000101000100000100 3#
b0 1
b0 <"
b0 P"
b0 u"
b11 G"
b11 _"
09"
b1100100 d"
14"
b0 3
b0 ="
b0 U"
b0 t"
b0 ;"
b0 O"
b0 k"
b0 5"
b0 b"
b0 m"
b101 ?"
b101 ^"
08"
b0 :"
b0 T"
b0 j"
b0 6"
b0 l"
b0 G
b0 E"
b100 T
b100 L"
b100 a"
b100 q"
b0 K"
b0 `"
b101000000100000000000000 D
b101000000100000000000000 D"
b101000000100000000000000 r"
b0 -
b0 7"
b0 v"
b10 `
b10 q
b10 #"
b11000 %#
b11000 -#
b11000 1#
b11000 V
b11000 ##
b11000 4#
b11000 &#
b11000 *#
b11000 .#
b10100 $#
b10100 )#
b10100 +#
b10100 2#
b11100000101000000100000000000000 ?
b11100000101000000100000000000000 C"
b11100000101000000100000000000000 w"
b11100000101000000100000000000000 5#
b10100 5
b10100 1"
b10100 s"
b10100 U
b10100 >"
b10100 N"
b10100 S"
b10100 6#
b11 K
b11 ("
b11 x"
b11111110010010001100000000001000 g
b11111110010010001100000000001000 w
b100100100011000000000010 E
b100100100011000000000010 f
b100100100011000000000010 z"
b10 .
b10 d
b10 ""
b10 !#
0C
b10 4
b10 a
b10 r
b10 }"
b10 2
b10 _
b10 !"
b10 &"
b10 ~"
b11111110010010001100000000011000 X
b11111110010010001100000000011000 i
b11111110010010001100000000011000 y
b11111110010010001100000000011000 "#
b11111110010010001100000000011000 /#
b10000 6
b10000 e
b10000 x
b10000 |"
b11100000100100100011000000000010 @
b11100000100100100011000000000010 '"
b11100000100100100011000000000010 {"
b10 L
b10 Z
b10 *"
b11 +
b11 Y
b11 ,"
b11 8#
b11 ;#
b11100011101000000010000100000011 A
b11100011101000000010000100000011 +"
b1 J
b1 ]
b1 >
b1 ^
1"
#60
0"
#65
b11100000110000000110000010100000 W
b11100000110000000110000010100000 '#
b11100000110000000110000010100000 ,#
b11100000110000000110000010100000 3#
b100 1
b100 <"
b100 P"
b100 u"
b100 G"
b100 _"
b10000100 d"
14"
b100 3
b100 ="
b100 U"
b100 t"
b100 ;"
b100 O"
b100 k"
b100 5"
b100 b"
b100 m"
b0 `
b0 q
b0 #"
b10 ?"
b10 ^"
b100 :"
b100 T"
b100 j"
b100 6"
b100 l"
b100 G
b100 E"
b101 T
b101 L"
b101 a"
b101 q"
b100 K"
b100 `"
b10001000101000100000100 D
b10001000101000100000100 D"
b10001000101000100000100 r"
b100000100 -
b100000100 7"
b100000100 v"
b10 J
b10 ]
b11 >
b11 ^
b11 L
b11 Z
b11 *"
b10 +
b10 Y
b10 ,"
b10 8#
b10 ;#
b11100000100100100011000000000010 A
b11100000100100100011000000000010 +"
b100 K
b100 ("
b100 x"
b11111110100000010000000000000000 g
b11111110100000010000000000000000 w
b101000000100000000000000 E
b101000000100000000000000 f
b101000000100000000000000 z"
b0 .
b0 d
b0 ""
b0 !#
b0 4
b0 a
b0 r
b0 }"
b0 2
b0 _
b0 !"
b0 &"
b0 ~"
b11111110100000010000000000010100 X
b11111110100000010000000000010100 i
b11111110100000010000000000010100 y
b11111110100000010000000000010100 "#
b11111110100000010000000000010100 /#
b10100 6
b10100 e
b10100 x
b10100 |"
b11100000101000000100000000000000 @
b11100000101000000100000000000000 '"
b11100000101000000100000000000000 {"
b11100000010001000101000100000100 ?
b11100000010001000101000100000100 C"
b11100000010001000101000100000100 w"
b11100000010001000101000100000100 5#
b11000 5
b11000 1"
b11000 s"
b11000 U
b11000 >"
b11000 N"
b11000 S"
b11000 6#
b11100 %#
b11100 -#
b11100 1#
b11100 V
b11100 ##
b11100 4#
b11100 &#
b11100 *#
b11100 .#
b11000 $#
b11000 )#
b11000 +#
b11000 2#
1"
#70
0"
#75
b11100001100001010111000101000010 W
b11100001100001010111000101000010 '#
b11100001100001010111000101000010 ,#
b11100001100001010111000101000010 3#
b0 1
b0 <"
b0 P"
b0 u"
b101 G"
b101 _"
b10100100 d"
14"
b0 3
b0 ="
b0 U"
b0 t"
b0 ;"
b0 O"
b0 k"
b0 5"
b0 b"
b0 m"
b110 ?"
b110 ^"
b0 :"
b0 T"
b0 j"
b0 6"
b0 l"
b0 G
b0 E"
b110 T
b110 L"
b110 a"
b110 q"
b0 K"
b0 `"
b110000000110000010100000 D
b110000000110000010100000 D"
b110000000110000010100000 r"
b10100000 -
b10100000 7"
b10100000 v"
b10000 `
b10000 q
b10000 #"
b100000 %#
b100000 -#
b100000 1#
b100000 V
b100000 ##
b100000 4#
b100000 &#
b100000 *#
b100000 .#
b11100 $#
b11100 )#
b11100 +#
b11100 2#
b11100000110000000110000010100000 ?
b11100000110000000110000010100000 C"
b11100000110000000110000010100000 w"
b11100000110000000110000010100000 5#
b11100 5
b11100 1"
b11100 s"
b11100 U
b11100 >"
b11100 N"
b11100 S"
b11100 6#
b101 K
b101 ("
b101 x"
b1000100010100010000010000 g
b1000100010100010000010000 w
b10001000101000100000100 E
b10001000101000100000100 f
b10001000101000100000100 z"
b100000100 .
b100000100 d
b100000100 ""
b100000100 !#
b100 4
b100 a
b100 r
b100 }"
b100 2
b100 _
b100 !"
b100 &"
b100 ~"
b1000100010100010000101000 X
b1000100010100010000101000 i
b1000100010100010000101000 y
b1000100010100010000101000 "#
b1000100010100010000101000 /#
b11000 6
b11000 e
b11000 x
b11000 |"
b11100000010001000101000100000100 @
b11100000010001000101000100000100 '"
b11100000010001000101000100000100 {"
b100 L
b100 Z
b100 *"
b0 +
b0 Y
b0 ,"
b0 8#
b0 ;#
b11100000101000000100000000000000 A
b11100000101000000100000000000000 +"
b11 J
b11 ]
b10 >
b10 ^
1"
#80
0"
#85
b11100000000001111000000000000011 W
b11100000000001111000000000000011 '#
b11100000000001111000000000000011 ,#
b11100000000001111000000000000011 3#
b10 1
b10 <"
b10 P"
b10 u"
b111 G"
b111 _"
b11100100 d"
14"
b101 3
b101 ="
b101 U"
b101 t"
b10 ;"
b10 O"
b10 k"
b10 5"
b10 b"
b10 m"
b0 `
b0 q
b0 #"
b1100 ?"
b1100 ^"
b101 :"
b101 T"
b101 j"
b101 6"
b101 l"
b101 G
b101 E"
b111 T
b111 L"
b111 a"
b111 q"
b10 K"
b10 `"
b100001010111000101000010 D
b100001010111000101000010 D"
b100001010111000101000010 r"
b101000010 -
b101000010 7"
b101000010 v"
b100 J
b100 ]
b0 >
b0 ^
b101 L
b101 Z
b101 *"
b100 +
b100 Y
b100 ,"
b100 8#
b100 ;#
b11100000010001000101000100000100 A
b11100000010001000101000100000100 +"
b110 K
b110 ("
b110 x"
b11111111000000011000001010000000 g
b11111111000000011000001010000000 w
b110000000110000010100000 E
b110000000110000010100000 f
b110000000110000010100000 z"
b10100000 .
b10100000 d
b10100000 ""
b10100000 !#
b0 4
b0 a
b0 r
b0 }"
b0 2
b0 _
b0 !"
b0 &"
b0 ~"
b11111111000000011000001010011100 X
b11111111000000011000001010011100 i
b11111111000000011000001010011100 y
b11111111000000011000001010011100 "#
b11111111000000011000001010011100 /#
b11100 6
b11100 e
b11100 x
b11100 |"
b11100000110000000110000010100000 @
b11100000110000000110000010100000 '"
b11100000110000000110000010100000 {"
b11100001100001010111000101000010 ?
b11100001100001010111000101000010 C"
b11100001100001010111000101000010 w"
b11100001100001010111000101000010 5#
b100000 5
b100000 1"
b100000 s"
b100000 U
b100000 >"
b100000 N"
b100000 S"
b100000 6#
b100100 %#
b100100 -#
b100100 1#
b100100 V
b100100 ##
b100100 4#
b100100 &#
b100100 *#
b100100 .#
b100000 $#
b100000 )#
b100000 +#
b100000 2#
1"
#90
0"
