debugged_ARM/WB_STAGE/ARM_TB.vcd
$date
	Wed Dec 20 18:27:40 2023
$end
$version
	Icarus Verilog
$end
$timescale
	1ns
$end
$scope module ARM_TB $end
$var parameter 32 ! HCLK $end
$var reg 1 " clk $end
$var reg 1 # rst $end
$scope module arm $end
$var wire 1 $ Branch_taken $end
$var wire 1 " clk $end
$var wire 1 % hazard $end
$var wire 4 & hazardRm_id_out [3:0] $end
$var wire 1 # rst $end
$var wire 1 ' wb_en_mem_to_wb_reg_out $end
$var wire 1 ( wb_en_id_out $end
$var wire 1 ) wb_en_id_ex_reg_out $end
$var wire 1 * wb_en_ex_mem_reg_out $end
$var wire 32 + wbValue [31:0] $end
$var wire 32 , val_rm_ex_mem_out [31:0] $end
$var wire 4 - status [3:0] $end
$var wire 12 . shift_operand_if_out [11:0] $end
$var wire 12 / shift_operand_id_ex_reg_out [11:0] $end
$var wire 1 0 s_id_out $end
$var wire 1 1 s_id_ex_reg_out $end
$var wire 32 2 reg2_id_out [31:0] $end
$var wire 32 3 reg2_id_ex_reg_out [31:0] $end
$var wire 32 4 reg1_id_out [31:0] $end
$var wire 32 5 reg1_id_ex_reg_out [31:0] $end
$var wire 32 6 pc_id_out [31:0] $end
$var wire 32 7 pc_id_ex_reg_out [31:0] $end
$var wire 1 8 mem_write_id_out $end
$var wire 1 9 mem_write_id_ex_reg_out $end
$var wire 1 : mem_write_en_ex_mem_out $end
$var wire 1 ; mem_read_id_out $end
$var wire 1 < mem_read_id_ex_reg_out $end
$var wire 1 = mem_read_en_mem_to_wb_reg_out $end
$var wire 1 > mem_read_en_ex_mem_reg_out $end
$var wire 32 ? mem_data_out_mem_ro_wb_reg_out [31:0] $end
$var wire 32 @ instruction_if_to_id_register_out [31:0] $end
$var wire 32 A instruction_id_ex_reg_out [31:0] $end
$var wire 32 B instruction_exe_mem_out [31:0] $end
$var wire 1 C imm_id_out $end
$var wire 1 D imm_id_ex_reg_out $end
$var wire 24 E imm24_id_out [23:0] $end
$var wire 24 F imm24_id_ex_reg_out [23:0] $end
$var wire 1 G hazard_two_scr_id_out $end
$var wire 4 H hazardRn_id_out [3:0] $end
$var wire 4 I exe_cmd_id_out [3:0] $end
$var wire 4 J exe_cmd_id_ex_reg_out [3:0] $end
$var wire 4 K dest_mem_to_wb_reg_out [3:0] $end
$var wire 4 L dest_id_ex_reg_out [3:0] $end
$var wire 4 M dest_ex_mem_out [3:0] $end
$var wire 32 N data_read_out [31:0] $end
$var wire 1 O carry_id_ex_reg_out $end
$var wire 1 P b_id_out $end
$var wire 1 Q b_id_ex_reg_out $end
$var wire 32 R alu_res_mem_to_wb_reg_out [31:0] $end
$var wire 32 S alu_res_ex_mem_reg_out [31:0] $end
$var wire 32 T alu_res [31:0] $end
$var wire 4 U Rd_id_out [3:0] $end
$var wire 32 V PC_if_to_id_register_out [31:0] $end
$var wire 32 W PC_if_stage_out [31:0] $end
$var wire 32 X Instruction_if_stage_out [31:0] $end
$var wire 32 Y BranchAddr [31:0] $end
$scope module stage_MEM_to_WB_register $end
$var wire 1 " clk $end
$var wire 1 # rst $end
$var wire 1 * wbEnIn $end
$var wire 1 > memREnIn $end
$var wire 32 Z memDataIn [31:0] $end
$var wire 4 [ destIn [3:0] $end
$var wire 32 \ aluResIn [31:0] $end
$var reg 32 ] aluResOut [31:0] $end
$var reg 4 ^ destOut [3:0] $end
$var reg 32 _ memDataOut [31:0] $end
$var reg 1 = memREnOut $end
$var reg 1 ' wbEnOut $end
$upscope $end
$scope module stage_exe $end
$var wire 1 " clk $end
$var wire 1 # rst $end
$var wire 32 ` valRm [31:0] $end
$var wire 32 a val2 [31:0] $end
$var wire 32 b val1 [31:0] $end
$var wire 4 c status_in [3:0] $end
$var wire 4 d status [3:0] $end
$var wire 12 e shift_operand [11:0] $end
$var wire 1 1 s $end
$var wire 32 f pc [31:0] $end
$var wire 1 9 mem_write_en $end
$var wire 1 < mem_read_en $end
$var wire 24 g imm_signed_24 [23:0] $end
$var wire 32 h imm24SignExt [31:0] $end
$var wire 1 D imm $end
$var wire 4 i exe_cmd [3:0] $end
$var wire 1 O carry $end
$var wire 32 j branch_addr [31:0] $end
$var wire 32 k alu_res [31:0] $end
$scope module alu $end
$var wire 1 l z $end
$var wire 4 m status [3:0] $end
$var wire 32 n nCarryExt [31:0] $end
$var wire 1 o n $end
$var wire 4 p exeCmd [3:0] $end
$var wire 1 O carryIn $end
$var wire 32 q carryExt [31:0] $end
$var wire 32 r b [31:0] $end
$var wire 32 s a [31:0] $end
$var parameter 32 t N $end
$var reg 1 u c $end
$var reg 32 v out [31:0] $end
$var reg 1 w v $end
$upscope $end
$scope module branch_calculator $end
$var wire 32 x x1 [31:0] $end
$var wire 32 y x0 [31:0] $end
$var wire 32 z res [31:0] $end
$upscope $end
$scope module status_register $end
$var wire 1 " clk $end
$var wire 1 { clr $end
$var wire 4 | in [3:0] $end
$var wire 1 # rst $end
$var wire 1 1 ld $end
$var parameter 32 } N $end
$var reg 4 ~ out [3:0] $end
$upscope $end
$scope module val2generator $end
$var wire 1 !" memInst $end
$var wire 32 "" valRm [31:0] $end
$var wire 12 #" shift_operand [11:0] $end
$var wire 1 D imm $end
$var reg 32 $" val2 [31:0] $end
$var integer 32 %" i [31:0] $end
$upscope $end
$upscope $end
$scope module stage_exe_to_mem_reg $end
$var wire 32 &" alu_res_in [31:0] $end
$var wire 1 " clk $end
$var wire 1 # rst $end
$var wire 1 ) wb_en_in $end
$var wire 32 '" val_rm_in [31:0] $end
$var wire 1 9 mem_write_en_in $end
$var wire 1 < mem_read_en_in $end
$var wire 32 (" instruction_in [31:0] $end
$var wire 4 )" dest_in [3:0] $end
$var reg 32 *" alu_res_out [31:0] $end
$var reg 4 +" dest_out [3:0] $end
$var reg 32 ," instruction_out [31:0] $end
$var reg 1 > mem_read_en_out $end
$var reg 1 : mem_write_en_out $end
$var reg 32 -" val_rm_out [31:0] $end
$var reg 1 * wb_en_out $end
$upscope $end
$scope module stage_id $end
$var wire 4 ." Dest_wb [3:0] $end
$var wire 1 " clk $end
$var wire 1 /" final_condition $end
$var wire 1 % hazard $end
$var wire 4 0" hazardRdm [3:0] $end
$var wire 1 G hazardTwoSrc $end
$var wire 32 1" pc_out [31:0] $end
$var wire 1 # rst $end
$var wire 4 2" status [3:0] $end
$var wire 1 3" wb_wb_en $end
$var wire 1 ( wb_en_out $end
$var wire 1 4" wb_en $end
$var wire 4 5" src2 [3:0] $end
$var wire 4 6" src1 [3:0] $end
$var wire 12 7" shift_operand [11:0] $end
$var wire 1 0 s_out $end
$var wire 1 8" s_in $end
$var wire 1 9" s $end
$var wire 32 :" regRn [31:0] $end
$var wire 32 ;" regRm [31:0] $end
$var wire 32 <" reg2 [31:0] $end
$var wire 32 =" reg1 [31:0] $end
$var wire 32 >" pc_in [31:0] $end
$var wire 4 ?" op_code [3:0] $end
$var wire 2 @" mode [1:0] $end
$var wire 1 8 mem_write_out $end
$var wire 1 A" mem_write $end
$var wire 1 ; mem_read_out $end
$var wire 1 B" mem_read $end
$var wire 32 C" instruction_in [31:0] $end
$var wire 24 D" imm24 [23:0] $end
$var wire 1 C imm $end
$var wire 4 E" hazardRn [3:0] $end
$var wire 4 F" exe_cmd_out [3:0] $end
$var wire 4 G" exe_cmd [3:0] $end
$var wire 1 H" cond_result $end
$var wire 4 I" cond [3:0] $end
$var wire 1 P b_out $end
$var wire 1 J" b $end
$var wire 32 K" Value_wb [31:0] $end
$var wire 4 L" Rm [3:0] $end
$var wire 4 M" R_destination [3:0] $end
$scope module Rm15 $end
$var wire 1 N" sel $end
$var wire 32 O" x1 [31:0] $end
$var wire 32 P" x0 [31:0] $end
$var wire 32 Q" res [31:0] $end
$var parameter 32 R" N $end
$upscope $end
$scope module Rn15 $end
$var wire 1 S" sel $end
$var wire 32 T" x1 [31:0] $end
$var wire 32 U" x0 [31:0] $end
$var wire 32 V" res [31:0] $end
$var parameter 32 W" N $end
$upscope $end
$scope module condition_check $end
$var wire 4 X" cond [3:0] $end
$var wire 4 Y" status [3:0] $end
$var wire 1 Z" z $end
$var wire 1 [" v $end
$var wire 1 \" n $end
$var wire 1 ]" c $end
$var reg 1 H" result $end
$upscope $end
$scope module control_unit $end
$var wire 2 ^" mode [1:0] $end
$var wire 4 _" op_code [3:0] $end
$var wire 1 8" s_in $end
$var reg 1 J" b $end
$var reg 4 `" exe_cmd [3:0] $end
$var reg 1 B" mem_read $end
$var reg 1 A" mem_write $end
$var reg 1 9" s_out $end
$var reg 1 4" wb_en $end
$upscope $end
$scope module mux_src2 $end
$var wire 1 A" sel $end
$var wire 4 a" x0 [3:0] $end
$var wire 4 b" x1 [3:0] $end
$var wire 4 c" res [3:0] $end
$var parameter 32 d" N $end
$upscope $end
$scope module mx $end
$var wire 1 /" sel $end
$var wire 9 e" x0 [8:0] $end
$var wire 9 f" x1 [8:0] $end
$var wire 9 g" res [8:0] $end
$var parameter 32 h" N $end
$upscope $end
$scope module register_file $end
$var wire 4 i" Dest_wb [3:0] $end
$var wire 1 " clk $end
$var wire 32 j" reg1 [31:0] $end
$var wire 32 k" reg2 [31:0] $end
$var wire 1 # rst $end
$var wire 4 l" src1 [3:0] $end
$var wire 4 m" src2 [3:0] $end
$var wire 1 3" writeBack_en $end
$var wire 32 n" Result_wb [31:0] $end
$var integer 32 o" i [31:0] $end
$upscope $end
$upscope $end
$scope module stage_id_to_ex_register $end
$var wire 1 P b_in $end
$var wire 1 p" carry_in $end
$var wire 1 " clk $end
$var wire 4 q" cmd_exe_in [3:0] $end
$var wire 4 r" dest_in [3:0] $end
$var wire 1 $ flush $end
$var wire 24 s" imm24_in [23:0] $end
$var wire 1 C imm_in $end
$var wire 1 ; mem_read_in $end
$var wire 1 8 mem_write_in $end
$var wire 32 t" pc_in [31:0] $end
$var wire 32 u" reg1_in [31:0] $end
$var wire 32 v" reg2_in [31:0] $end
$var wire 1 # rst $end
$var wire 1 0 s_in $end
$var wire 12 w" shift_operand_in [11:0] $end
$var wire 1 ( wb_en_in $end
$var wire 32 x" instruction_in [31:0] $end
$var reg 1 Q b_out $end
$var reg 1 O carry_out $end
$var reg 4 y" dest_out [3:0] $end
$var reg 4 z" exe_cmd_out [3:0] $end
$var reg 24 {" imm24_out [23:0] $end
$var reg 1 D imm_out $end
$var reg 32 |" instruction_out [31:0] $end
$var reg 1 < mem_read_out $end
$var reg 1 9 mem_write_out $end
$var reg 32 }" pc_out [31:0] $end
$var reg 32 ~" reg1_out [31:0] $end
$var reg 32 !# reg2_out [31:0] $end
$var reg 1 1 s_out $end
$var reg 12 "# shift_operand_out [11:0] $end
$var reg 1 ) wb_en_out $end
$upscope $end
$scope module stage_if $end
$var wire 32 ## BranchAddr [31:0] $end
$var wire 1 $ Branch_taken $end
$var wire 32 $# PC [31:0] $end
$var wire 1 " clk $end
$var wire 1 % freeze $end
$var wire 1 # rst $end
$var wire 32 %# pc_reg_out [31:0] $end
$var wire 32 &# pc_reg_in [31:0] $end
$var wire 32 '# pc_adder_out [31:0] $end
$var wire 32 (# Instruction [31:0] $end
$scope module adder $end
$var wire 32 )# x1 [31:0] $end
$var wire 32 *# x0 [31:0] $end
$var wire 32 +# res [31:0] $end
$upscope $end
$scope module instruction_memory $end
$var wire 1 " clk $end
$var wire 1 # rst $end
$var wire 32 ,# PC [31:0] $end
$var reg 32 -# Instruction [31:0] $end
$upscope $end
$scope module mux $end
$var wire 32 .# res [31:0] $end
$var wire 1 $ sel $end
$var wire 32 /# x0 [31:0] $end
$var wire 32 0# x1 [31:0] $end
$var parameter 32 1# N $end
$upscope $end
$scope module pc $end
$var wire 1 " clk $end
$var wire 1 % freeze $end
$var wire 32 2# in [31:0] $end
$var wire 1 # rst $end
$var reg 32 3# out [31:0] $end
$upscope $end
$upscope $end
$scope module stage_if_to_id_register $end
$var wire 1 " clk $end
$var wire 1 $ flush $end
$var wire 1 % freeze $end
$var wire 32 4# instruction_in [31:0] $end
$var wire 32 5# pc_in [31:0] $end
$var wire 1 # rst $end
$var reg 32 6# instruction_out [31:0] $end
$var reg 32 7# pc_out [31:0] $end
$upscope $end
$scope module stage_mem $end
$var wire 32 8# alu_re_addr [31:0] $end
$var wire 1 " clk $end
$var wire 1 > mem_read_en $end
$var wire 1 : mem_write_en $end
$var wire 1 # rst $end
$var wire 32 9# val_rm [31:0] $end
$var wire 1 * wb_en $end
$var wire 32 :# data_out [31:0] $end
$scope module data_memory $end
$var wire 1 " clk $end
$var wire 32 ;# memAdr [31:0] $end
$var wire 1 > memRead $end
$var wire 1 : memWrite $end
$var wire 1 # rst $end
$var wire 32 <# writeData [31:0] $end
$var wire 32 =# dataAdr [31:0] $end
$var wire 32 ># adr [31:0] $end
$var wire 32 ?# Data_Memory_Output_tmp [31:0] $end
$var parameter 32 @# WordCount $end
$var reg 32 A# readData [31:0] $end
$upscope $end
$upscope $end
$scope module stage_wb $end
$var wire 32 B# aluRes [31:0] $end
$var wire 1 " clk $end
$var wire 32 C# memData [31:0] $end
$var wire 1 = memREn $end
$var wire 1 # rst $end
$var wire 32 D# wbValue [31:0] $end
$scope module wbMux $end
$var wire 1 = sel $end
$var wire 32 E# x0 [31:0] $end
$var wire 32 F# x1 [31:0] $end
$var wire 32 G# res [31:0] $end
$var parameter 32 H# N $end
$upscope $end
$upscope $end
$upscope $end
$upscope $end
$enddefinitions $end
$comment Show the parameter values. $end
$dumpall
b100000 H#
b1000000 @#
b100000 1#
b1001 h"
b100 d"
b100000 W"
b100000 R"
b100 }
b100000 t
b101 !
$end
#0
$dumpvars
b0 G#
b0 F#
b0 E#
b0 D#
b0 C#
b0 B#
b0 A#
b0 ?#
b111111111111111111111100000000 >#
b11111111111111111111110000000000 =#
b0 <#
b0 ;#
b0 :#
b0 9#
b0 8#
b0 7#
b0 6#
b100 5#
bx 4#
b0 3#
b100 2#
b0 0#
b100 /#
b100 .#
bx -#
b0 ,#
b100 +#
b0 *#
b100 )#
bx (#
b100 '#
b100 &#
b0 %#
b100 $#
b0 ##
b0 "#
b0 !#
b0 ~"
b0 }"
b0 |"
b0 {"
b0 z"
b0 y"
b0 x"
b0 w"
b0 v"
b0 u"
b0 t"
b0 s"
b0 r"
b0 q"
0p"
b1111 o"
b0 n"
b0 m"
b0 l"
b0 k"
b0 j"
b0 i"
b0 g"
b0 f"
b11000100 e"
b0 c"
b0 b"
b0 a"
b110 `"
b0 _"
b0 ^"
0]"
0\"
0["
0Z"
b0 Y"
b0 X"
b0 V"
b0 U"
b0 T"
0S"
b0 Q"
b0 P"
b0 O"
0N"
b0 M"
b0 L"
b0 K"
0J"
b0 I"
0H"
b110 G"
b0 F"
b0 E"
b0 D"
b0 C"
0B"
0A"
b0 @"
b0 ?"
b0 >"
b0 ="
b0 <"
b0 ;"
b0 :"
09"
08"
b0 7"
b0 6"
b0 5"
14"
03"
b0 2"
b0 1"
bz 0"
1/"
b0 ."
b0 -"
b0 ,"
b0 +"
b0 *"
b0 )"
b0 ("
b0 '"
b0 &"
bx %"
b0 $"
b0 #"
b0 ""
0!"
b0 ~
b100 |
0{
b0 z
b0 y
b0 x
0w
b0 v
0u
b0 s
b0 r
b0 q
b0 p
0o
b1 n
b100 m
1l
b0 k
b0 j
b0 i
b0 h
b0 g
b0 f
b0 e
b0 d
b100 c
b0 b
b0 a
b0 `
b0 _
b0 ^
b0 ]
b0 \
b0 [
b0 Z
b0 Y
bx X
b100 W
b0 V
b0 U
b0 T
b0 S
b0 R
0Q
0P
0O
b0 N
b0 M
b0 L
b0 K
b0 J
b0 I
b0 H
1G
b0 F
b0 E
0D
0C
b0 B
b0 A
b0 @
b0 ?
0>
0=
0<
0;
0:
09
08
b0 7
b0 6
b0 5
b0 4
b0 3
b0 2
01
00
b0 /
b0 .
b0 -
b0 ,
b0 +
0*
0)
0(
0'
bz &
0%
0$
1#
0"
$end
#5
1"
#10
b11100011101000000000000000010100 X
b11100011101000000000000000010100 (#
b11100011101000000000000000010100 -#
b11100011101000000000000000010100 4#
0"
0#
#15
b11100011101000000001101000000001 X
b11100011101000000001101000000001 (#
b11100011101000000001101000000001 -#
b11100011101000000001101000000001 4#
0G
b100 2
b100 <"
b100 Q"
b100 v"
1H"
b1 G"
b1 `"
b100100 e"
14"
b100 ;"
b100 P"
b100 k"
b100 5"
b100 c"
b100 m"
b1110 I"
b1110 X"
b1101 ?"
b1101 _"
1C
b100 L"
b100 a"
b101000000000000000010100 E
b101000000000000000010100 D"
b101000000000000000010100 s"
b10100 .
b10100 7"
b10100 w"
b1000 &#
b1000 .#
b1000 2#
b1000 W
b1000 $#
b1000 5#
b1000 '#
b1000 +#
b1000 /#
b100 %#
b100 *#
b100 ,#
b100 3#
b11100011101000000000000000010100 @
b11100011101000000000000000010100 C"
b11100011101000000000000000010100 x"
b11100011101000000000000000010100 6#
b100 6
b100 1"
b100 t"
b100 V
b100 >"
b100 O"
b100 T"
b100 7#
1"
#20
0"
#25
b11100011101000000010000100000011 X
b11100011101000000010000100000011 (#
b11100011101000000010000100000011 -#
b11100011101000000010000100000011 4#
b1 2
b1 <"
b1 Q"
b1 v"
b1 ;"
b1 P"
b1 k"
b1 5"
b1 c"
b1 m"
b0 %"
b10100 a
b10100 r
b10100 $"
b1 U
b1 M"
b1 b"
b1 r"
b1 L"
b1 a"
b101000000001101000000001 E
b101000000001101000000001 D"
b101000000001101000000001 s"
b101000000001 .
b101000000001 7"
b101000000001 w"
b11111110100000000000000001010000 h
b11111110100000000000000001010000 x
b101000000000000000010100 F
b101000000000000000010100 g
b101000000000000000010100 {"
b10100 /
b10100 e
b10100 #"
b10100 "#
1D
b100 3
b100 `
b100 ""
b100 '"
b100 !#
b11111110100000000000000001010100 Y
b11111110100000000000000001010100 j
b11111110100000000000000001010100 z
b11111110100000000000000001010100 ##
b11111110100000000000000001010100 0#
b100 7
b100 f
b100 y
b100 }"
b11100011101000000000000000010100 A
b11100011101000000000000000010100 ("
b11100011101000000000000000010100 |"
b11100011101000000001101000000001 @
b11100011101000000001101000000001 C"
b11100011101000000001101000000001 x"
b11100011101000000001101000000001 6#
b1000 6
b1000 1"
b1000 t"
b1000 V
b1000 >"
b1000 O"
b1000 T"
b1000 7#
b1100 &#
b1100 .#
b1100 2#
b1100 W
b1100 $#
b1100 5#
b1100 '#
b1100 +#
b1100 /#
b1000 %#
b1000 *#
b1000 ,#
b1000 3#
1"
#30
0"
#35
b11100000100100100011000000000010 X
b11100000100100100011000000000010 (#
b11100000100100100011000000000010 -#
b11100000100100100011000000000010 4#
b11 2
b11 <"
b11 Q"
b11 v"
b11 ;"
b11 P"
b11 k"
b11 5"
b11 c"
b11 m"
b10 U
b10 M"
b10 b"
b10 r"
b11 L"
b11 a"
b101000000010000100000011 E
b101000000010000100000011 D"
b101000000010000100000011 s"
b100000011 .
b100000011 7"
b100000011 w"
b10100 %"
b1000000000000 a
b1000000000000 r
b1000000000000 $"
b10000 &#
b10000 .#
b10000 2#
b10000 W
b10000 $#
b10000 5#
b10000 '#
b10000 +#
b10000 /#
b1100 %#
b1100 *#
b1100 ,#
b1100 3#
b11100011101000000010000100000011 @
b11100011101000000010000100000011 C"
b11100011101000000010000100000011 x"
b11100011101000000010000100000011 6#
b1100 6
b1100 1"
b1100 t"
b1100 V
b1100 >"
b1100 O"
b1100 T"
b1100 7#
b1 L
b1 )"
b1 y"
b11111110100000000110100000000100 h
b11111110100000000110100000000100 x
b101000000001101000000001 F
b101000000001101000000001 g
b101000000001101000000001 {"
b101000000001 /
b101000000001 e
b101000000001 #"
b101000000001 "#
b1 3
b1 `
b1 ""
b1 '"
b1 !#
b11111110100000000110100000001100 Y
b11111110100000000110100000001100 j
b11111110100000000110100000001100 z
b11111110100000000110100000001100 ##
b11111110100000000110100000001100 0#
b1000 7
b1000 f
b1000 y
b1000 }"
b11100011101000000001101000000001 A
b11100011101000000001101000000001 ("
b11100011101000000001101000000001 |"
b100 ,
b100 Z
b100 -"
b100 9#
b100 <#
b11100011101000000000000000010100 B
b11100011101000000000000000010100 ,"
1"
#40
0"
#45
b11100000101000000100000000000000 X
b11100000101000000100000000000000 (#
b11100000101000000100000000000000 -#
b11100000101000000100000000000000 4#
1G
b10 2
b10 <"
b10 Q"
b10 v"
19"
b10 G"
b10 `"
b1000101 e"
14"
b10 4
b10 ="
b10 V"
b10 u"
b10 ;"
b10 P"
b10 k"
b10 5"
b10 c"
b10 m"
b10 %"
b11000000000000000000000000000000 a
b11000000000000000000000000000000 r
b11000000000000000000000000000000 $"
b100 ?"
b100 _"
18"
b10 :"
b10 U"
b10 j"
b10 6"
b10 l"
b10 H
b10 E"
0C
b11 U
b11 M"
b11 b"
b11 r"
b10 L"
b10 a"
b100100100011000000000010 E
b100100100011000000000010 D"
b100100100011000000000010 s"
b10 .
b10 7"
b10 w"
b100 ?
b100 _
b100 C#
b100 F#
b1 M
b1 [
b1 +"
b1 ,
b1 Z
b1 -"
b1 9#
b1 <#
b11100011101000000001101000000001 B
b11100011101000000001101000000001 ,"
b10 L
b10 )"
b10 y"
b11111110100000001000010000001100 h
b11111110100000001000010000001100 x
b101000000010000100000011 F
b101000000010000100000011 g
b101000000010000100000011 {"
b100000011 /
b100000011 e
b100000011 #"
b100000011 "#
b11 3
b11 `
b11 ""
b11 '"
b11 !#
b11111110100000001000010000011000 Y
b11111110100000001000010000011000 j
b11111110100000001000010000011000 z
b11111110100000001000010000011000 ##
b11111110100000001000010000011000 0#
b1100 7
b1100 f
b1100 y
b1100 }"
b11100011101000000010000100000011 A
b11100011101000000010000100000011 ("
b11100011101000000010000100000011 |"
b11100000100100100011000000000010 @
b11100000100100100011000000000010 C"
b11100000100100100011000000000010 x"
b11100000100100100011000000000010 6#
b10000 6
b10000 1"
b10000 t"
b10000 V
b10000 >"
b10000 O"
b10000 T"
b10000 7#
b10100 &#
b10100 .#
b10100 2#
b10100 W
b10100 $#
b10100 5#
b10100 '#
b10100 +#
b10100 /#
b10000 %#
b10000 *#
b10000 ,#
b10000 3#
1"
#50
0"
#55
b11100000010001000101000100000100 X
b11100000010001000101000100000100 (#
b11100000010001000101000100000100 -#
b11100000010001000101000100000100 4#
b0 2
b0 <"
b0 Q"
b0 v"
b11 G"
b11 `"
09"
b1100100 e"
14"
b0 4
b0 ="
b0 V"
b0 u"
b0 ;"
b0 P"
b0 k"
b0 5"
b0 c"
b0 m"
b101 ?"
b101 _"
08"
b0 :"
b0 U"
b0 j"
b0 6"
b0 l"
b0 H
b0 E"
b100 U
b100 M"
b100 b"
b100 r"
b0 L"
b0 a"
b101000000100000000000000 E
b101000000100000000000000 D"
b101000000100000000000000 s"
b0 .
b0 7"
b0 w"
b10 a
b10 r
b10 $"
b11000 &#
b11000 .#
b11000 2#
b11000 W
b11000 $#
b11000 5#
b11000 '#
b11000 +#
b11000 /#
b10100 %#
b10100 *#
b10100 ,#
b10100 3#
b11100000101000000100000000000000 @
b11100000101000000100000000000000 C"
b11100000101000000100000000000000 x"
b11100000101000000100000000000000 6#
b10100 6
b10100 1"
b10100 t"
b10100 V
b10100 >"
b10100 O"
b10100 T"
b10100 7#
b11 L
b11 )"
b11 y"
b11111110010010001100000000001000 h
b11111110010010001100000000001000 x
b100100100011000000000010 F
b100100100011000000000010 g
b100100100011000000000010 {"
b10 /
b10 e
b10 #"
b10 "#
0D
b10 5
b10 b
b10 s
b10 ~"
b10 3
b10 `
b10 ""
b10 '"
b10 !#
b11111110010010001100000000011000 Y
b11111110010010001100000000011000 j
b11111110010010001100000000011000 z
b11111110010010001100000000011000 ##
b11111110010010001100000000011000 0#
b10000 7
b10000 f
b10000 y
b10000 }"
b11100000100100100011000000000010 A
b11100000100100100011000000000010 ("
b11100000100100100011000000000010 |"
b10 M
b10 [
b10 +"
b11 ,
b11 Z
b11 -"
b11 9#
b11 <#
b11100011101000000010000100000011 B
b11100011101000000010000100000011 ,"
b1 K
b1 ^
b1 ?
b1 _
b1 C#
b1 F#
1"
#60
0"
#65
b11100000110000000110000010100000 X
b11100000110000000110000010100000 (#
b11100000110000000110000010100000 -#
b11100000110000000110000010100000 4#
b100 2
b100 <"
b100 Q"
b100 v"
b100 G"
b100 `"
b10000100 e"
14"
b100 4
b100 ="
b100 V"
b100 u"
b100 ;"
b100 P"
b100 k"
b100 5"
b100 c"
b100 m"
b0 a
b0 r
b0 $"
b10 ?"
b10 _"
b100 :"
b100 U"
b100 j"
b100 6"
b100 l"
b100 H
b100 E"
b101 U
b101 M"
b101 b"
b101 r"
b100 L"
b100 a"
b10001000101000100000100 E
b10001000101000100000100 D"
b10001000101000100000100 s"
b100000100 .
b100000100 7"
b100000100 w"
b10 K
b10 ^
b11 ?
b11 _
b11 C#
b11 F#
b11 M
b11 [
b11 +"
b10 ,
b10 Z
b10 -"
b10 9#
b10 <#
b11100000100100100011000000000010 B
b11100000100100100011000000000010 ,"
b100 L
b100 )"
b100 y"
b11111110100000010000000000000000 h
b11111110100000010000000000000000 x
b101000000100000000000000 F
b101000000100000000000000 g
b101000000100000000000000 {"
b0 /
b0 e
b0 #"
b0 "#
b0 5
b0 b
b0 s
b0 ~"
b0 3
b0 `
b0 ""
b0 '"
b0 !#
b11111110100000010000000000010100 Y
b11111110100000010000000000010100 j
b11111110100000010000000000010100 z
b11111110100000010000000000010100 ##
b11111110100000010000000000010100 0#
b10100 7
b10100 f
b10100 y
b10100 }"
b11100000101000000100000000000000 A
b11100000101000000100000000000000 ("
b11100000101000000100000000000000 |"
b11100000010001000101000100000100 @
b11100000010001000101000100000100 C"
b11100000010001000101000100000100 x"
b11100000010001000101000100000100 6#
b11000 6
b11000 1"
b11000 t"
b11000 V
b11000 >"
b11000 O"
b11000 T"
b11000 7#
b11100 &#
b11100 .#
b11100 2#
b11100 W
b11100 $#
b11100 5#
b11100 '#
b11100 +#
b11100 /#
b11000 %#
b11000 *#
b11000 ,#
b11000 3#
1"
#70
0"
#75
b11100001100001010111000101000010 X
b11100001100001010111000101000010 (#
b11100001100001010111000101000010 -#
b11100001100001010111000101000010 4#
b0 2
b0 <"
b0 Q"
b0 v"
b101 G"
b101 `"
b10100100 e"
14"
b0 4
b0 ="
b0 V"
b0 u"
b0 ;"
b0 P"
b0 k"
b0 5"
b0 c"
b0 m"
b110 ?"
b110 _"
b0 :"
b0 U"
b0 j"
b0 6"
b0 l"
b0 H
b0 E"
b110 U
b110 M"
b110 b"
b110 r"
b0 L"
b0 a"
b110000000110000010100000 E
b110000000110000010100000 D"
b110000000110000010100000 s"
b10100000 .
b10100000 7"
b10100000 w"
b10000 a
b10000 r
b10000 $"
b100000 &#
b100000 .#
b100000 2#
b100000 W
b100000 $#
b100000 5#
b100000 '#
b100000 +#
b100000 /#
b11100 %#
b11100 *#
b11100 ,#
b11100 3#
b11100000110000000110000010100000 @
b11100000110000000110000010100000 C"
b11100000110000000110000010100000 x"
b11100000110000000110000010100000 6#
b11100 6
b11100 1"
b11100 t"
b11100 V
b11100 >"
b11100 O"
b11100 T"
b11100 7#
b101 L
b101 )"
b101 y"
b1000100010100010000010000 h
b1000100010100010000010000 x
b10001000101000100000100 F
b10001000101000100000100 g
b10001000101000100000100 {"
b100000100 /
b100000100 e
b100000100 #"
b100000100 "#
b100 5
b100 b
b100 s
b100 ~"
b100 3
b100 `
b100 ""
b100 '"
b100 !#
b1000100010100010000101000 Y
b1000100010100010000101000 j
b1000100010100010000101000 z
b1000100010100010000101000 ##
b1000100010100010000101000 0#
b11000 7
b11000 f
b11000 y
b11000 }"
b11100000010001000101000100000100 A
b11100000010001000101000100000100 ("
b11100000010001000101000100000100 |"
b100 M
b100 [
b100 +"
b0 ,
b0 Z
b0 -"
b0 9#
b0 <#
b11100000101000000100000000000000 B
b11100000101000000100000000000000 ,"
b11 K
b11 ^
b10 ?
b10 _
b10 C#
b10 F#
1"
#80
0"
